<?xml version="1.0" encoding="UTF-8" standalone="no"?>
<svg
   xmlns:dc="http://purl.org/dc/elements/1.1/"
   xmlns:cc="http://creativecommons.org/ns#"
   xmlns:rdf="http://www.w3.org/1999/02/22-rdf-syntax-ns#"
   xmlns:svg="http://www.w3.org/2000/svg"
   xmlns="http://www.w3.org/2000/svg"
   xmlns:xlink="http://www.w3.org/1999/xlink"
   xmlns:sodipodi="http://sodipodi.sourceforge.net/DTD/sodipodi-0.dtd"
   xmlns:inkscape="http://www.inkscape.org/namespaces/inkscape"
   id="svg4286"
   height="48"
   width="48"
   version="1.1"
   inkscape:version="0.91 r"
   sodipodi:docname="shares.svg">
  <sodipodi:namedview
     pagecolor="#ffffff"
     bordercolor="#666666"
     borderopacity="1"
     objecttolerance="10"
     gridtolerance="10"
     guidetolerance="10"
     inkscape:pageopacity="0"
     inkscape:pageshadow="2"
     inkscape:window-width="1354"
     inkscape:window-height="578"
     id="namedview42"
     showgrid="false"
     inkscape:zoom="4.9166667"
     inkscape:cx="1.9322034"
     inkscape:cy="24"
     inkscape:window-x="75"
     inkscape:window-y="34"
     inkscape:window-maximized="0"
     inkscape:current-layer="svg4286" />
  <defs
     id="defs4288">
    <linearGradient
       id="linearGradient5005">
      <stop
         offset="0"
         style="stop-color:#ffffff;stop-opacity:1"
         id="stop5007" />
      <stop
         offset="0.6069864"
         style="stop-color:#ffffff;stop-opacity:0.23529412"
         id="stop5009" />
      <stop
         offset="0.83456558"
         style="stop-color:#ffffff;stop-opacity:0.15686275"
         id="stop5011" />
      <stop
         offset="1"
         style="stop-color:#ffffff;stop-opacity:0.39215687"
         id="stop5013" />
    </linearGradient>
    <linearGradient
       id="linearGradient4951">
      <stop
         offset="0"
         style="stop-color:#ffffff;stop-opacity:1"
         id="stop4953" />
      <stop
         offset="0.27070504"
         style="stop-color:#ffffff;stop-opacity:0.23529412"
         id="stop4955" />
      <stop
         offset="0.45041913"
         style="stop-color:#ffffff;stop-opacity:0.15686275"
         id="stop4957" />
      <stop
         offset="1"
         style="stop-color:#ffffff;stop-opacity:0.39215687"
         id="stop4959" />
    </linearGradient>
    <linearGradient
       id="linearGradient4891">
      <stop
         offset="0"
         style="stop-color:#ffffff;stop-opacity:1"
         id="stop4893" />
      <stop
         offset="0.66162539"
         style="stop-color:#ffffff;stop-opacity:0.23529412"
         id="stop4895" />
      <stop
         offset="1"
         style="stop-color:#ffffff;stop-opacity:0.39215687"
         id="stop4899" />
    </linearGradient>
    <linearGradient
       id="linearGradient3966">
      <stop
         offset="0"
         style="stop-color:#000000;stop-opacity:1"
         id="stop3968" />
      <stop
         offset="1"
         style="stop-color:#000000;stop-opacity:0"
         id="stop3970" />
    </linearGradient>
    <radialGradient
       gradientTransform="matrix(1.3962496,0,0,0.46382834,-9.0466213,19.310077)"
       gradientUnits="userSpaceOnUse"
       xlink:href="#linearGradient3966"
       id="radialGradient4284"
       fy="44.129044"
       fx="23.668133"
       r="6.0999999"
       cy="44.129044"
       cx="23.668133" />
    <linearGradient
       x1="120.19312"
       y1="24.809452"
       x2="120.19312"
       y2="28.251366"
       id="linearGradient3012"
       xlink:href="#linearGradient5005"
       gradientUnits="userSpaceOnUse"
       gradientTransform="matrix(1.0452457,0,0,1.0470044,-101.72983,-2.2518007)" />
    <linearGradient
       y2="19.708174"
       x2="120.00706"
       y1="16.029192"
       x1="120.00706"
       gradientTransform="matrix(1.0452457,0,0,1.0470044,-101.53858,-1.9206998)"
       gradientUnits="userSpaceOnUse"
       id="linearGradient4889"
       xlink:href="#linearGradient4891" />
    <linearGradient
       y2="71.138969"
       x2="137.01239"
       y1="64.287117"
       x1="137.01239"
       gradientTransform="matrix(1.2047511,0,0,1.2161045,-141.05523,-44.754251)"
       gradientUnits="userSpaceOnUse"
       id="linearGradient4949"
       xlink:href="#linearGradient4951" />
    <radialGradient
       gradientTransform="matrix(3.7102089,0,0,0.95427648,-63.813721,-3.4344993)"
       gradientUnits="userSpaceOnUse"
       xlink:href="#linearGradient3966"
       id="radialGradient4284-8"
       fy="44.129044"
       fx="23.668133"
       r="6.0999999"
       cy="44.129044"
       cx="23.668133" />
    <radialGradient
       gradientTransform="matrix(0,2.8563645,-2.6957724,-7.7745842e-8,46.778746,-12.133684)"
       gradientUnits="userSpaceOnUse"
       xlink:href="#linearGradient2867-449-88-871-390-598-476-591-434-148-57-177-3-8-3"
       id="radialGradient3015"
       fy="8.4497671"
       fx="4.9078908"
       r="19.99999"
       cy="8.4497671"
       cx="4.9078908" />
    <linearGradient
       id="linearGradient2867-449-88-871-390-598-476-591-434-148-57-177-3-8-3">
      <stop
         offset="0"
         style="stop-color:#90dbec;stop-opacity:1"
         id="stop3750-8-9-1" />
      <stop
         offset="0.26238"
         style="stop-color:#42baea;stop-opacity:1"
         id="stop3752-3-2-8" />
      <stop
         offset="0.704952"
         style="stop-color:#3689e6;stop-opacity:1"
         id="stop3754-7-2-1" />
      <stop
         offset="1"
         style="stop-color:#2b63a0;stop-opacity:1"
         id="stop3756-9-3-3" />
    </linearGradient>
  </defs>
  <metadata
     id="metadata4291">
    <rdf:RDF>
      <cc:Work
         rdf:about="">
        <dc:format>image/svg+xml</dc:format>
        <dc:type
           rdf:resource="http://purl.org/dc/dcmitype/StillImage" />
        <dc:title />
      </cc:Work>
    </rdf:RDF>
  </metadata>
  <path
     id="path4391"
     d="m 23.999999,8.500122 c -8.426197,0 -16.1490517,3.287385 -22.1486366,8.689968 l 4.8174753,5.287963 a 25.594918,25.637981 0 0 1 17.3311613,-6.81242 25.594918,25.637981 0 0 1 17.333959,6.809617 l 4.81468,-5.28516 C 40.149051,11.787507 32.426198,8.500122 23.999999,8.500122 Z m 0,11.391397 A 21.376883,21.412849 0 0 0 9.5084066,25.594223 l 4.8566424,5.329999 a 14.168848,14.192689 0 0 1 9.63495,-3.811146 14.168848,14.192689 0 0 1 9.640547,3.808342 l 4.848249,-5.32439 A 21.376883,21.412849 0 0 0 23.999999,19.891519 Z m 0,11.553933 a 9.8440257,9.860589 0 0 0 -6.728239,2.670602 l 6.728239,7.384092 6.722644,-7.381289 a 9.8440257,9.860589 0 0 0 -6.722644,-2.673405 z"
     style="color:#000000;clip-rule:nonzero;display:inline;overflow:visible;visibility:visible;opacity:1;isolation:auto;mix-blend-mode:normal;color-interpolation:sRGB;color-interpolation-filters:linearRGB;solid-color:#000000;solid-opacity:1;fill:#3d97e4;fill-opacity:1;fill-rule:nonzero;stroke:none;stroke-width:1;stroke-linecap:butt;stroke-linejoin:miter;stroke-miterlimit:4;stroke-dasharray:none;stroke-dashoffset:0;stroke-opacity:1;marker:none;color-rendering:auto;image-rendering:auto;shape-rendering:auto;text-rendering:auto;enable-background:accumulate" />
</svg>
