<?xml version="1.0" encoding="UTF-8" standalone="no"?>
<!-- Created with Inkscape (http://www.inkscape.org/) -->

<svg
   xmlns:dc="http://purl.org/dc/elements/1.1/"
   xmlns:cc="http://creativecommons.org/ns#"
   xmlns:rdf="http://www.w3.org/1999/02/22-rdf-syntax-ns#"
   xmlns:svg="http://www.w3.org/2000/svg"
   xmlns="http://www.w3.org/2000/svg"
   xmlns:xlink="http://www.w3.org/1999/xlink"
   xmlns:sodipodi="http://sodipodi.sourceforge.net/DTD/sodipodi-0.dtd"
   xmlns:inkscape="http://www.inkscape.org/namespaces/inkscape"
   version="1.1"
   width="48"
   height="48"
   id="svg4279"
   inkscape:version="0.91 r"
   sodipodi:docname="unity-datetime-panel.svg">
  <sodipodi:namedview
     pagecolor="#ffffff"
     bordercolor="#666666"
     borderopacity="1"
     objecttolerance="10"
     gridtolerance="10"
     guidetolerance="10"
     inkscape:pageopacity="0"
     inkscape:pageshadow="2"
     inkscape:window-width="1451"
     inkscape:window-height="802"
     id="namedview63"
     showgrid="false"
     inkscape:zoom="4.9166667"
     inkscape:cx="24"
     inkscape:cy="24"
     inkscape:window-x="75"
     inkscape:window-y="34"
     inkscape:window-maximized="0"
     inkscape:current-layer="layer1" />
  <defs
     id="defs4281">
    <linearGradient
       id="linearGradient4119">
      <stop
         id="stop4121"
         style="stop-color:#ffffff;stop-opacity:1"
         offset="0" />
      <stop
         id="stop4148"
         style="stop-color:#afaba5;stop-opacity:1"
         offset="0.53996283" />
      <stop
         id="stop4146"
         style="stop-color:#837874;stop-opacity:1"
         offset="0.61988848" />
      <stop
         id="stop4123"
         style="stop-color:#b4b2aa;stop-opacity:1"
         offset="1" />
    </linearGradient>
    <linearGradient
       x1="71.204407"
       y1="15.369057"
       x2="71.204407"
       y2="40.495617"
       id="linearGradient3221"
       xlink:href="#linearGradient4806-9"
       gradientUnits="userSpaceOnUse"
       gradientTransform="matrix(1.5920714,0,0,1.5920721,-90.909525,-36.366112)" />
    <linearGradient
       id="linearGradient4806-9">
      <stop
         id="stop4808-49"
         style="stop-color:#ffffff;stop-opacity:1"
         offset="0" />
      <stop
         id="stop4810-05"
         style="stop-color:#ffffff;stop-opacity:0.23529412"
         offset="0.42447853" />
      <stop
         id="stop4812-6"
         style="stop-color:#ffffff;stop-opacity:0.15686275"
         offset="0.82089913" />
      <stop
         id="stop4814-7"
         style="stop-color:#ffffff;stop-opacity:0.39215687"
         offset="1" />
    </linearGradient>
    <radialGradient
       cx="15.026252"
       cy="8.6257601"
       r="19.99999"
       fx="0.3035326"
       fy="8.625761"
       id="radialGradient3228"
       xlink:href="#linearGradient2867-449-88-871-390-598-476-591-434-148-57-177-641-289-620-227-114-444-680-744-4-8-69-5-4-8-426-2-9-1-4-965"
       gradientUnits="userSpaceOnUse"
       gradientTransform="matrix(-6.7138023e-8,1.1033078,-1.0394758,-7.5994236e-8,32.783449,-12.239865)" />
    <linearGradient
       id="linearGradient2867-449-88-871-390-598-476-591-434-148-57-177-641-289-620-227-114-444-680-744-4-8-69-5-4-8-426-2-9-1-4-965">
      <stop
         id="stop4036"
         style="stop-color:#f4f4f4;stop-opacity:1"
         offset="0" />
      <stop
         id="stop4040"
         style="stop-color:#dadada;stop-opacity:1"
         offset="1" />
    </linearGradient>
    <linearGradient
       id="linearGradient3820-7-2-2">
      <stop
         id="stop3822-2-6-36"
         style="stop-color:#3d3d3d;stop-opacity:1"
         offset="0" />
      <stop
         id="stop3864-8-7-6"
         style="stop-color:#686868;stop-opacity:0.49803922"
         offset="0.5" />
      <stop
         id="stop3824-1-2-4"
         style="stop-color:#686868;stop-opacity:0"
         offset="1" />
    </linearGradient>
    <radialGradient
       cx="99.157013"
       cy="186.17059"
       r="62.769119"
       fx="99.157013"
       fy="186.17059"
       id="radialGradient4277"
       xlink:href="#linearGradient3820-7-2-2"
       gradientUnits="userSpaceOnUse"
       gradientTransform="matrix(0.23897101,0,0,0.07603625,0.30434835,12.071012)" />
    <radialGradient
       cx="15.026252"
       cy="8.6257601"
       r="19.99999"
       fx="0.3035326"
       fy="8.625761"
       id="radialGradient3228-8"
       xlink:href="#linearGradient2867-449-88-871-390-598-476-591-434-148-57-177-641-289-620-227-114-444-680-744-4-8-69-5-4-8-426-2-9-1-4-965-2"
       gradientUnits="userSpaceOnUse"
       gradientTransform="matrix(-4.7487238e-8,0.78037803,-0.73522917,-5.3751304e-8,22.212601,1.684189)" />
    <linearGradient
       id="linearGradient2867-449-88-871-390-598-476-591-434-148-57-177-641-289-620-227-114-444-680-744-4-8-69-5-4-8-426-2-9-1-4-965-2">
      <stop
         id="stop4036-1"
         style="stop-color:#f4f4f4;stop-opacity:1"
         offset="0" />
      <stop
         id="stop4040-2"
         style="stop-color:#d0d0d0;stop-opacity:1"
         offset="1" />
    </linearGradient>
    <radialGradient
       cx="15.026252"
       cy="8.6257601"
       r="19.99999"
       fx="0.3035326"
       fy="8.625761"
       id="radialGradient4949"
       xlink:href="#linearGradient2867-449-88-871-390-598-476-591-434-148-57-177-641-289-620-227-114-444-680-744-4-8-69-5-4-8-426-2-9-1-4-965-2"
       gradientUnits="userSpaceOnUse"
       gradientTransform="matrix(-4.7487238e-8,0.78037803,-0.73522917,-5.3751304e-8,20.712408,0.1839955)" />
    <radialGradient
       cx="16"
       cy="15.377224"
       r="0.62612247"
       fx="16"
       fy="15.377224"
       id="radialGradient4125-6"
       xlink:href="#linearGradient4119-0"
       gradientUnits="userSpaceOnUse"
       gradientTransform="matrix(0,1.9131623,-1.9131652,0,45.41917,-15.233372)" />
    <linearGradient
       id="linearGradient4119-0">
      <stop
         id="stop4121-2"
         style="stop-color:#ffffff;stop-opacity:1"
         offset="0" />
      <stop
         id="stop4148-9"
         style="stop-color:#afaba5;stop-opacity:1"
         offset="0.53996283" />
      <stop
         id="stop4146-7"
         style="stop-color:#837874;stop-opacity:1"
         offset="0.61988848" />
      <stop
         id="stop4123-5"
         style="stop-color:#b4b2aa;stop-opacity:1"
         offset="1" />
    </linearGradient>
    <linearGradient
       x1="71.204407"
       y1="15.369057"
       x2="71.204407"
       y2="40.495617"
       id="linearGradient3221-8"
       xlink:href="#linearGradient4806-9-3"
       gradientUnits="userSpaceOnUse"
       gradientTransform="matrix(1.1022033,0,0,1.1022038,-7.5861158,-10.16348)" />
    <linearGradient
       id="linearGradient4806-9-3">
      <stop
         id="stop4808-49-1"
         style="stop-color:#ffffff;stop-opacity:1"
         offset="0" />
      <stop
         id="stop4810-05-0"
         style="stop-color:#ffffff;stop-opacity:0.23529412"
         offset="0.42447853" />
      <stop
         id="stop4812-6-2"
         style="stop-color:#ffffff;stop-opacity:0.15686275"
         offset="0.82089913" />
      <stop
         id="stop4814-7-9"
         style="stop-color:#ffffff;stop-opacity:0.39215687"
         offset="1" />
    </linearGradient>
    <radialGradient
       cx="15.026252"
       cy="8.6257601"
       r="19.99999"
       fx="0.3035326"
       fy="8.625761"
       id="radialGradient3228-1"
       xlink:href="#linearGradient2867-449-88-871-390-598-476-591-434-148-57-177-641-289-620-227-114-444-680-744-4-8-69-5-4-8-426-2-9-1-4-965-4"
       gradientUnits="userSpaceOnUse"
       gradientTransform="matrix(-4.7487238e-8,0.78037803,-0.73522917,-5.3751304e-8,78.179235,6.2357099)" />
    <linearGradient
       id="linearGradient2867-449-88-871-390-598-476-591-434-148-57-177-641-289-620-227-114-444-680-744-4-8-69-5-4-8-426-2-9-1-4-965-4">
      <stop
         id="stop4036-8"
         style="stop-color:#f4f4f4;stop-opacity:1"
         offset="0" />
      <stop
         id="stop4040-4"
         style="stop-color:#dadada;stop-opacity:1"
         offset="1" />
    </linearGradient>
    <radialGradient
       cx="99.157013"
       cy="186.17059"
       r="62.769119"
       fx="99.157013"
       fy="186.17059"
       id="radialGradient4277-5"
       xlink:href="#linearGradient3820-7-2-2-0"
       gradientUnits="userSpaceOnUse"
       gradientTransform="matrix(0.17524541,0,0,0.05575992,-1.37681,18.119145)" />
    <linearGradient
       id="linearGradient3820-7-2-2-0">
      <stop
         id="stop3822-2-6-36-5"
         style="stop-color:#3d3d3d;stop-opacity:1"
         offset="0" />
      <stop
         id="stop3864-8-7-6-2"
         style="stop-color:#686868;stop-opacity:0.49803922"
         offset="0.5" />
      <stop
         id="stop3824-1-2-4-7"
         style="stop-color:#686868;stop-opacity:0"
         offset="1" />
    </linearGradient>
    <radialGradient
       cx="99.157013"
       cy="186.17059"
       r="62.769119"
       fx="99.157013"
       fy="186.17059"
       id="radialGradient3070"
       xlink:href="#linearGradient3820-7-2-2-0"
       gradientUnits="userSpaceOnUse"
       gradientTransform="matrix(0.17524541,0,0,0.05575992,54.589824,22.670666)" />
    <radialGradient
       cx="16"
       cy="15.377224"
       r="0.62612247"
       fx="16"
       fy="15.377224"
       id="radialGradient3139"
       xlink:href="#linearGradient4119"
       gradientUnits="userSpaceOnUse"
       gradientTransform="matrix(0,1.9131623,-1.9131652,0,45.41917,-15.233372)" />
  </defs>
  <metadata
     id="metadata4284">
    <rdf:RDF>
      <cc:Work
         rdf:about="">
        <dc:format>image/svg+xml</dc:format>
        <dc:type
           rdf:resource="http://purl.org/dc/dcmitype/StillImage" />
        <dc:title />
      </cc:Work>
    </rdf:RDF>
  </metadata>
  <g
     transform="translate(0,16)"
     id="layer1">
    <path
       d="M 24,-12.5 C 12.688808,-12.5 3.5,-3.3111931 3.5,7.9999996 3.5,19.311192 12.688808,28.500003 24,28.5 35.311191,28.5 44.500007,19.311192 44.5,7.9999996 44.5,-3.3111931 35.311191,-12.5 24,-12.5 z"
       inkscape:connector-curvature="0"
       id="path2555-7-65"
       style="color:#000000;fill:#d4d4d4;fill-opacity:1;fill-rule:nonzero;stroke:none;stroke-width:1;marker:none;visibility:visible;display:inline;overflow:visible;enable-background:accumulate" />
    <path
       d="M 24,-12.5 C 12.688807,-12.5 3.5,-3.3111949 3.5,7.9999982 3.5,19.311193 12.688807,28.500004 24,28.5 35.311193,28.5 44.500014,19.311193 44.5,7.9999982 44.5,-3.3111949 35.311193,-12.5 24,-12.5 z"
       inkscape:connector-curvature="0"
       id="path2555-7-1-7"
       style="opacity:0.4;color:#000000;fill:none;stroke:none;stroke-width:0.99999994;stroke-linecap:round;stroke-linejoin:round;stroke-miterlimit:4;stroke-opacity:1;stroke-dasharray:none;stroke-dashoffset:0;marker:none;visibility:visible;display:inline;overflow:visible;enable-background:accumulate" />
    <path
       d="M 22.8,9.3215125 34.20044,-3.7000005"
       inkscape:connector-curvature="0"
       id="path2312"
       style="fill:none;stroke:#333333;stroke-width:0.59999996;stroke-linecap:round;stroke-linejoin:miter;stroke-miterlimit:4;stroke-opacity:1;stroke-dasharray:none" />
    <path
       d="M 25.286917,8.1757965 15.3,7.5274915"
       inkscape:connector-curvature="0"
       id="path2314"
       style="fill:#0000ff;fill-opacity:1;stroke:#333333;stroke-width:0.59999996;stroke-linecap:round;stroke-linejoin:miter;stroke-miterlimit:4;stroke-opacity:1;stroke-dasharray:none" />
    <path
       d="M 22.8,5.0754326 28.205664,19.700001"
       inkscape:connector-curvature="0"
       id="path2316"
       style="fill:none;stroke:#eb5c3a;stroke-width:0.59999996;stroke-linecap:round;stroke-linejoin:miter;stroke-miterlimit:4;stroke-opacity:1;stroke-dasharray:none" />
    <path
       d="m 25.529126,-9.9126213 c -0.175224,3.2e-6 -0.338914,0.038916 -0.480582,0.087379 -0.137947,0.044741 -0.245127,0.071421 -0.349515,0.131068 -0.10066,0.059654 -0.198758,0.158799 -0.262136,0.2184466 -0.06337,0.059654 -0.108699,0.065012 -0.131068,0.087379 l 0.262136,0.3058253 c 0.0261,-0.033551 0.0826,-0.078871 0.131068,-0.131068 0.05219,-0.055919 0.100199,-0.126288 0.174757,-0.1747573 0.07456,-0.048464 0.165203,-0.097512 0.262136,-0.1310679 0.100661,-0.037279 0.226484,-0.043687 0.349515,-0.043689 0.119296,3e-6 0.216348,0.010136 0.305825,0.043689 0.09321,0.033556 0.158794,0.075148 0.218447,0.1310679 0.06337,0.055925 0.101233,0.1476143 0.131068,0.2184466 0.03355,0.070837 0.04369,0.1039247 0.04369,0.1747573 -3e-6,0.1118475 -0.02027,0.2238079 -0.08738,0.3058253 -0.06339,0.082021 -0.161477,0.1513416 -0.262136,0.2184466 -0.10066,0.067108 -0.186526,0.1188363 -0.305825,0.1747572 -0.115577,0.052196 -0.248856,0.122565 -0.349514,0.1747573 -0.190138,0.1006616 -0.313866,0.1902537 -0.436894,0.3058253 -0.119296,0.111846 -0.234991,0.2264864 -0.305825,0.3495145 -0.06711,0.1230291 -0.104966,0.2589909 -0.131068,0.3932039 -0.02237,0.1304857 -0.04369,0.2989516 -0.04369,0.4368932 l 2.402913,0 0,-0.3495146 -1.96602,0 c 0.01492,-0.1155718 0.05382,-0.2163489 0.08738,-0.3058252 0.03729,-0.089476 0.103917,-0.187572 0.174757,-0.2621359 0.07084,-0.074563 0.15029,-0.1476106 0.262136,-0.2184466 0.111845,-0.070834 0.269125,-0.1438823 0.436893,-0.2184466 0.07083,-0.033552 0.154017,-0.078873 0.262136,-0.131068 0.111845,-0.052192 0.201435,-0.1364253 0.305825,-0.2184466 0.104379,-0.082017 0.191299,-0.1502894 0.262136,-0.2621359 0.07456,-0.1155705 0.131068,-0.2803084 0.131068,-0.4368932 -3e-6,-0.1192991 -0.03891,-0.2014343 -0.08738,-0.3058253 -0.04847,-0.1081132 -0.125238,-0.2238029 -0.218447,-0.3058252 -0.09321,-0.082016 -0.215304,-0.1300166 -0.349515,-0.1747573 -0.13048,-0.048462 -0.269127,-0.087376 -0.436893,-0.087379 z m -2.752427,0.043689 c -0.0074,0.018644 -0.06769,0.075148 -0.131068,0.131068 -0.06337,0.055925 -0.125238,0.1113819 -0.218447,0.1747572 -0.08948,0.063381 -0.201437,0.1262936 -0.305825,0.1747573 -0.10066,0.048469 -0.176389,0.087382 -0.262136,0.087379 l 0,0.3495145 c 0.07084,2.3e-6 0.125238,-0.013855 0.218447,-0.043689 0.09321,-0.029823 0.220077,-0.086327 0.305825,-0.131068 0.08948,-0.044735 0.147611,-0.078871 0.218447,-0.1310679 0.07084,-0.052191 0.141202,-0.086327 0.174757,-0.131068 l 0,2.4029126 -0.786408,0 0,0.3495146 1.878641,0 0,-0.3495146 -0.699029,0 0,-2.8834951 -0.393204,0 z M 7.3980578,6.0339806 c -0.1975936,2.8e-6 -0.3964673,0.016553 -0.5679612,0.087379 -0.171496,0.07084 -0.3101367,0.1827989 -0.4368932,0.3058252 -0.1230291,0.1230291 -0.2312625,0.269129 -0.3058253,0.4368932 -0.070835,0.1640412 -0.087379,0.3341377 -0.087379,0.5242717 -3e-7,0.18641 0.016543,0.360235 0.087379,0.524272 0.070834,0.16404 0.1827957,0.313865 0.3058253,0.436893 0.1230291,0.119297 0.2728534,0.191302 0.4368932,0.262136 0.1677657,0.06711 0.3341345,0.131068 0.5242718,0.131068 0.2535127,0 0.4577456,-0.08797 0.6553398,-0.218447 0.2013179,-0.13048 0.3548713,-0.304309 0.4368932,-0.524271 -2.6e-6,0.275884 -0.031459,0.526486 -0.087379,0.742718 -0.052196,0.212505 -0.1215164,0.378874 -0.2184466,0.524272 -0.093206,0.149127 -0.2153031,0.271223 -0.3495146,0.349514 -0.134215,0.07829 -0.2728561,0.131068 -0.4368932,0.131068 -0.208778,0 -0.3964672,-0.05918 -0.5679611,-0.174757 C 6.6149112,9.4609714 6.5114551,9.2823694 6.4368927,9.0922334 l -0.2621359,0.262136 c 0.108116,0.231145 0.2718052,0.393785 0.4805825,0.524271 0.2087757,0.1304806 0.438057,0.1747556 0.6990291,0.1747576 0.2199593,-2e-6 0.4326971,-0.03414 0.6116505,-0.1310676 0.1789491,-0.09693 0.3101334,-0.235573 0.4368932,-0.436893 0.1304828,-0.197592 0.2349875,-0.444467 0.3058253,-0.742719 0.070832,-0.301979 0.1310648,-0.645901 0.1310679,-1.048544 C 8.8398022,7.4369334 8.7795693,7.2001964 8.7087374,6.9951457 8.6378996,6.7863708 8.5296667,6.6125461 8.4029121,6.4708738 8.2798805,6.3292072 8.1412398,6.1959247 7.9660189,6.1213593 7.7907936,6.0430708 7.6068326,6.0339834 7.3980578,6.0339806 z m 33.3349522,0 c -0.134214,2.8e-6 -0.266448,0.010206 -0.393204,0.043689 -0.126762,0.029835 -0.245127,0.075146 -0.349515,0.131068 -0.104393,0.055922 -0.180117,0.1364365 -0.262136,0.2184466 -0.08202,0.078291 -0.173708,0.1652072 -0.218446,0.2621359 l 0.262136,0.2184466 c 0.08202,-0.1677642 0.189203,-0.2999967 0.349514,-0.3932039 0.164039,-0.096927 0.355455,-0.1310679 0.567961,-0.1310679 0.115578,2.8e-6 0.252581,0.013841 0.349515,0.043689 0.10066,0.029835 0.191299,0.071427 0.262136,0.131068 0.07456,0.055922 0.133752,0.1327037 0.174757,0.2184466 0.04101,0.082024 0.04369,0.150294 0.04369,0.2621359 -2e-6,0.212506 -0.0656,0.390059 -0.218446,0.524271 -0.152857,0.134214 -0.368274,0.218448 -0.65534,0.218447 l -0.174757,0 0,0.305825 0.131068,0 c 0.316891,2e-6 0.57495,0.06932 0.742718,0.218447 0.167764,0.149127 0.262133,0.354408 0.262136,0.61165 -3e-6,0.253514 -0.101834,0.477437 -0.262136,0.611651 -0.160312,0.137946 -0.375729,0.174757 -0.65534,0.174757 -0.242331,0 -0.45134,-0.03414 -0.61165,-0.131068 -0.160311,-0.09693 -0.271223,-0.229165 -0.349515,-0.393204 l -0.262136,0.262136 c 0.108112,0.201321 0.268078,0.325049 0.480583,0.436893 0.212503,0.115578 0.459378,0.1747556 0.742718,0.1747576 0.193862,-2e-6 0.367688,-0.03146 0.524272,-0.08738 0.160309,-0.05219 0.281357,-0.117786 0.393204,-0.218447 0.115564,-0.09693 0.202482,-0.207845 0.262136,-0.349514 0.06337,-0.137947 0.131068,-0.312816 0.131068,-0.480583 -3e-6,-0.268427 -0.06933,-0.472659 -0.218447,-0.655339 -0.1454,-0.182679 -0.365595,-0.308504 -0.61165,-0.349515 0.115563,-0.01492 0.216347,-0.03519 0.305825,-0.08738 0.09321,-0.05592 0.198755,-0.140154 0.262136,-0.218446 0.06337,-0.08201 0.09752,-0.161475 0.131068,-0.262136 0.03355,-0.104379 0.04369,-0.193978 0.04369,-0.305825 -2e-6,-0.1491239 -0.02774,-0.3138613 -0.08738,-0.4368932 C 41.76932,6.4789127 41.667493,6.3818664 41.563107,6.2961165 41.458714,6.2066408 41.358987,6.1261392 41.213592,6.0776699 41.07192,6.0292132 40.904503,6.0339806 40.73301,6.0339806 z M 7.3980578,6.3398059 c 0.1416681,2.8e-6 0.2701729,0.031456 0.3932038,0.087379 0.126755,0.052203 0.2126191,0.1215192 0.3058253,0.2184466 0.09693,0.093209 0.2062111,0.2227596 0.2621359,0.3495146 0.055919,0.1230291 0.087376,0.2552643 0.087379,0.3932033 -2.6e-6,0.141672 -0.031459,0.266448 -0.087379,0.393204 -0.052196,0.123029 -0.1215164,0.212622 -0.2184466,0.305825 -0.093206,0.09321 -0.2227595,0.206215 -0.3495146,0.262136 -0.1267591,0.05219 -0.2515357,0.04369 -0.3932038,0.04369 -0.1416714,10e-7 -0.266448,0.0085 -0.3932039,-0.04369 C 6.8818233,8.2935924 6.7485423,8.1805834 6.6553393,8.0873784 6.5621347,7.9941754 6.4928143,7.9045844 6.4368927,7.7815534 6.3809704,7.6547914 6.3495141,7.5300214 6.3495141,7.3883494 6.3495135,7.2466814 6.3846976,7.1181776 6.4368927,6.9951457 6.4928136,6.8683977 6.562135,6.7388369 6.6553393,6.6456311 6.7522709,6.5524226 6.8818236,6.479381 7.0048539,6.4271845 7.1316102,6.3712622 7.2563864,6.3398059 7.3980578,6.3398059 z M 24.305825,21.849514 c -0.219962,4e-6 -0.4327,0.07783 -0.61165,0.174757 -0.178953,0.09694 -0.306408,0.235577 -0.436893,0.436894 -0.126762,0.197596 -0.234992,0.44074 -0.305826,0.742718 -0.07084,0.298255 -0.08738,0.645904 -0.08738,1.048544 0,0.257244 0.02027,0.490253 0.08738,0.699029 0.07084,0.205049 0.179068,0.382602 0.305826,0.524272 0.126761,0.141671 0.261669,0.227534 0.436893,0.305825 0.175221,0.07456 0.359183,0.131068 0.567961,0.131068 0.19759,0 0.396464,-0.01654 0.567961,-0.08738 0.171493,-0.07084 0.313861,-0.182796 0.436893,-0.305825 0.126762,-0.123029 0.234987,-0.272853 0.305826,-0.436893 0.07456,-0.167766 0.08738,-0.334135 0.08738,-0.524272 -3e-6,-0.186406 -0.01655,-0.360231 -0.08738,-0.524272 -0.07084,-0.164037 -0.182799,-0.31759 -0.305826,-0.436893 -0.123029,-0.123029 -0.269129,-0.195026 -0.436893,-0.262136 -0.164041,-0.07083 -0.334137,-0.131068 -0.524272,-0.131068 -0.253515,3e-6 -0.454021,0.08797 -0.65534,0.218447 -0.197593,0.130481 -0.354874,0.304312 -0.436893,0.524272 0,-0.272153 0.03519,-0.526484 0.08738,-0.742719 0.05592,-0.216231 0.125238,-0.42256 0.218446,-0.567961 0.09693,-0.149123 0.2153,-0.227531 0.349515,-0.305825 0.134214,-0.07829 0.272853,-0.131068 0.436893,-0.131068 0.208775,4e-6 0.396464,0.05919 0.567961,0.174757 0.171493,0.111845 0.318639,0.24676 0.393204,0.436893 l 0.218447,-0.218446 c -0.108126,-0.231143 -0.271809,-0.393783 -0.480583,-0.524272 -0.208779,-0.130481 -0.43806,-0.218443 -0.699029,-0.218447 z m -0.04369,1.660194 c 0.137946,3e-6 0.266445,0.03146 0.393204,0.08738 0.126762,0.05219 0.256309,0.125238 0.349514,0.218447 0.09321,0.09321 0.162522,0.222759 0.218447,0.349514 0.05592,0.123029 0.08738,0.251536 0.08738,0.393204 -3e-6,0.141671 -0.03146,0.266448 -0.08738,0.393204 -0.05219,0.123029 -0.121519,0.212622 -0.218447,0.305825 -0.09321,0.09321 -0.222759,0.206214 -0.349514,0.262136 -0.123029,0.05219 -0.251536,0.04369 -0.393204,0.04369 -0.141671,0 -0.266448,0.0085 -0.393204,-0.04369 -0.123029,-0.05592 -0.208894,-0.168931 -0.305825,-0.262136 -0.09321,-0.09693 -0.206215,-0.182795 -0.262136,-0.305825 -0.05592,-0.123029 -0.04369,-0.251533 -0.04369,-0.393204 -2e-6,-0.141668 -0.0085,-0.270173 0.04369,-0.393204 0.05592,-0.126762 0.125238,-0.256309 0.218446,-0.349514 0.09693,-0.09321 0.222756,-0.16625 0.349515,-0.218447 0.126762,-0.05592 0.251533,-0.08738 0.393204,-0.08738 z"
       inkscape:connector-curvature="0"
       id="text4045"
       style="font-size:4px;font-style:normal;font-variant:normal;font-weight:normal;font-stretch:normal;line-height:125%;letter-spacing:0px;word-spacing:0px;opacity:0.4;fill:#000000;fill-opacity:1;stroke:none;font-family:Raleway;-inkscape-font-specification:Raleway" />
    <path
       d="m 16.626122,16 a 0.62612247,0.62612247 0 1 1 -1.252244,0 0.62612247,0.62612247 0 1 1 1.252244,0 z"
       transform="matrix(1.1951518,0,0,1.1919186,4.8775712,-10.943003)"
       id="path4117"
       style="color:#000000;fill:url(#radialGradient3139);fill-opacity:1;fill-rule:nonzero;stroke:none;stroke-width:1.25224495;marker:none;visibility:visible;display:inline;overflow:visible;enable-background:accumulate" />
  </g>
</svg>
