<?xml version="1.0" encoding="UTF-8" standalone="no"?>
<!-- Created with Inkscape (http://www.inkscape.org/) -->

<svg
   xmlns:dc="http://purl.org/dc/elements/1.1/"
   xmlns:cc="http://creativecommons.org/ns#"
   xmlns:rdf="http://www.w3.org/1999/02/22-rdf-syntax-ns#"
   xmlns:svg="http://www.w3.org/2000/svg"
   xmlns="http://www.w3.org/2000/svg"
   xmlns:sodipodi="http://sodipodi.sourceforge.net/DTD/sodipodi-0.dtd"
   xmlns:inkscape="http://www.inkscape.org/namespaces/inkscape"
   width="48"
   height="48"
   viewBox="0 0 48.000001 48.000001"
   id="svg4238"
   version="1.1"
   inkscape:version="0.91 r"
   sodipodi:docname="accessories-text-editor.svg">
  <defs
     id="defs4240" />
  <sodipodi:namedview
     id="base"
     pagecolor="#ffffff"
     bordercolor="#666666"
     borderopacity="1.0"
     inkscape:pageopacity="0.0"
     inkscape:pageshadow="2"
     inkscape:zoom="19.083333"
     inkscape:cx="5.9166813"
     inkscape:cy="24"
     inkscape:document-units="px"
     inkscape:current-layer="layer1"
     showgrid="false"
     units="px"
     inkscape:window-width="1855"
     inkscape:window-height="1056"
     inkscape:window-x="65"
     inkscape:window-y="24"
     inkscape:window-maximized="1" />
  <metadata
     id="metadata4243">
    <rdf:RDF>
      <cc:Work
         rdf:about="">
        <dc:format>image/svg+xml</dc:format>
        <dc:type
           rdf:resource="http://purl.org/dc/dcmitype/StillImage" />
        <dc:title></dc:title>
      </cc:Work>
    </rdf:RDF>
  </metadata>
  <g
     inkscape:label="Livello 1"
     inkscape:groupmode="layer"
     id="layer1"
     transform="translate(0,-1004.3622)">
    <rect
       style="opacity:1;fill:#cf1300;fill-opacity:1;stroke:none;stroke-width:1;stroke-miterlimit:4;stroke-dasharray:none;stroke-opacity:1"
       id="rect4802"
       width="23.652361"
       height="2.9794641"
       x="11.647933"
       y="1017.5213"
       rx="1.7494801"
       ry="1.7494801" />
    <rect
       style="opacity:1;fill:#cf1300;fill-opacity:1;stroke:none;stroke-width:1;stroke-miterlimit:4;stroke-dasharray:none;stroke-opacity:1"
       id="rect4804"
       width="23.23982"
       height="3.1169777"
       x="11.831284"
       y="1021.4635"
       rx="1.7494801"
       ry="1.7494801" />
    <rect
       style="opacity:1;fill:#cf1300;fill-opacity:1;stroke:none;stroke-width:1;stroke-miterlimit:4;stroke-dasharray:none;stroke-opacity:1"
       id="rect4806"
       width="24.064901"
       height="2.7502744"
       x="11.831284"
       y="1025.4513"
       rx="1.7494801"
       ry="1.7494801" />
    <rect
       style="opacity:1;fill:#cf1300;fill-opacity:1;stroke:none;stroke-width:1;stroke-miterlimit:4;stroke-dasharray:none;stroke-opacity:1"
       id="rect4808"
       width="17.785109"
       height="3.1169777"
       x="12.15215"
       y="1029.3475"
       rx="1.7494801"
       ry="1.7494801" />
    <g
       transform="matrix(0.23809524,0,0,0.23809524,-11.047619,991.67172)"
       id="g4009"
       style="display:inline;opacity:1;fill:#ffffff;fill-opacity:1;enable-background:new">
      <path
         style="color:#000000;display:inline;overflow:visible;visibility:visible;fill:#ffffff;fill-opacity:1;fill-rule:nonzero;stroke:none;stroke-width:20;marker:none;enable-background:new"
         d="m 200,76 c 4.432,0 8,3.568 8,8 l 0,103 0,10.25 0,5.5 0,25.25 c 0,4.432 -3.568,8 -8,8 l -25.25,0 -5.5,0 -14.25,0 -67,0 c -4.432,0 -8,-3.568 -8,-8 L 80,84 c 0,-4.432 3.568,-8 8,-8 l 112,0 z m -12,36 -88,0 0,4 88,0 0,-4 z m 0,16 -88,0 0,4 88,0 0,-4 z m 0,16 -88,0 0,4 88,0 0,-4 z m -24,16 -64,0 0,4 64,0 0,-4 z"
         id="path4011"
         inkscape:connector-curvature="0" />
      <path
         inkscape:connector-curvature="0"
         style="color:#000000;display:inline;overflow:visible;visibility:visible;fill:#ffffff;fill-opacity:1;fill-rule:nonzero;stroke:none;stroke-width:20;marker:none;enable-background:new"
         d="m 100,68 c -3.7395,0 -6.864919,2.544013 -7.75,6 L 200,74 c 5.50541,0 10,4.494594 10,10 l 0,103 0,10.25 0,5.5 0,25.25 2,0 c 4.432,0 8,-3.568 8,-8 l 0,-25.25 0,-5.5 0,-10.25 0,-103 c 0,-4.432 -3.568,-8 -8,-8 l -112,0 z m -8,10 0,142 c 0,4.432 3.568,8 8,8 l 67,0 14.25,0 5.5,0 19.25,0 0,-25.25 0,-5.5 0,-10.25 0,-103 c 0,-3.358594 -2.64141,-6 -6,-6 L 92,78 Z m 20,26 88,0 0,4 -88,0 0,-4 z m -14,6 2,0 88,0 2,0 0,2 0,4 0,2 -2,0 -88,0 -2,0 0,-2 0,-4 0,-2 z m 14,10 88,0 0,4 -88,0 0,-4 z m -14,6 2,0 88,0 2,0 0,2 0,4 0,2 -2,0 -88,0 -2,0 0,-2 0,-4 0,-2 z m 14,10 88,0 0,4 -88,0 0,-4 z m -14,6 2,0 88,0 2,0 0,2 0,4 0,2 -2,0 -88,0 -2,0 0,-2 0,-4 0,-2 z m 14,10 64,0 0,4 -64,0 0,-4 z m -14,6 2,0 64,0 2,0 0,2 0,4 0,2 -2,0 -64,0 -2,0 0,-2 0,-4 0,-2 z"
         id="path4013" />
    </g>
  </g>
</svg>
