<?xml version="1.0" encoding="UTF-8" standalone="no"?>
<!-- Created with Inkscape (http://www.inkscape.org/) -->

<svg
   xmlns:dc="http://purl.org/dc/elements/1.1/"
   xmlns:cc="http://creativecommons.org/ns#"
   xmlns:rdf="http://www.w3.org/1999/02/22-rdf-syntax-ns#"
   xmlns:svg="http://www.w3.org/2000/svg"
   xmlns="http://www.w3.org/2000/svg"
   xmlns:xlink="http://www.w3.org/1999/xlink"
   xmlns:sodipodi="http://sodipodi.sourceforge.net/DTD/sodipodi-0.dtd"
   xmlns:inkscape="http://www.inkscape.org/namespaces/inkscape"
   version="1.1"
   width="48"
   height="48"
   id="svg4405"
   inkscape:version="0.91 r"
   sodipodi:docname="winecfg.svg">
  <sodipodi:namedview
     pagecolor="#ffffff"
     bordercolor="#666666"
     borderopacity="1"
     objecttolerance="10"
     gridtolerance="10"
     guidetolerance="10"
     inkscape:pageopacity="0"
     inkscape:pageshadow="2"
     inkscape:window-width="1740"
     inkscape:window-height="1027"
     id="namedview97"
     showgrid="true"
     inkscape:zoom="19.25"
     inkscape:cx="15.012987"
     inkscape:cy="24"
     inkscape:window-x="139"
     inkscape:window-y="24"
     inkscape:window-maximized="0"
     inkscape:current-layer="layer1">
    <inkscape:grid
       type="xygrid"
       id="grid3098" />
  </sodipodi:namedview>
  <defs
     id="defs4407">
    <linearGradient
       id="linearGradient4260">
      <stop
         id="stop4262"
         style="stop-color:#000000;stop-opacity:1"
         offset="0" />
      <stop
         id="stop4264"
         style="stop-color:#000000;stop-opacity:0"
         offset="1" />
    </linearGradient>
    <linearGradient
       id="linearGradient3707-319-631-407-324-616">
      <stop
         id="stop3246"
         style="stop-color:#505050;stop-opacity:1"
         offset="0" />
      <stop
         id="stop3248"
         style="stop-color:#8e8e8e;stop-opacity:1"
         offset="1" />
    </linearGradient>
    <linearGradient
       x1="23.99999"
       y1="4.999989"
       x2="23.99999"
       y2="43"
       id="linearGradient3473"
       xlink:href="#linearGradient3924-803"
       gradientUnits="userSpaceOnUse"
       gradientTransform="translate(1.17e-5,1.00001)" />
    <linearGradient
       id="linearGradient3924-803">
      <stop
         id="stop3252"
         style="stop-color:#ffffff;stop-opacity:1"
         offset="0" />
      <stop
         id="stop3254"
         style="stop-color:#ffffff;stop-opacity:0.23529412"
         offset="0.06316455" />
      <stop
         id="stop3256"
         style="stop-color:#ffffff;stop-opacity:0.15686275"
         offset="0.95056331" />
      <stop
         id="stop3258"
         style="stop-color:#ffffff;stop-opacity:0.39215687"
         offset="1" />
    </linearGradient>
    <radialGradient
       cx="7.4956832"
       cy="8.4497671"
       r="19.99999"
       fx="7.4956832"
       fy="8.4497671"
       id="radialGradient3476"
       xlink:href="#linearGradient4041"
       gradientUnits="userSpaceOnUse"
       gradientTransform="matrix(1.9428467e-8,2.33699,-2.4722567,-4.3056275e-8,44.890112,-11.434799)" />
    <linearGradient
       id="linearGradient2867-449-88-871-390-598-476-591-434-148-57-177-641">
      <stop
         id="stop3236"
         style="stop-color:#c7c7c7;stop-opacity:1"
         offset="0" />
      <stop
         id="stop3238"
         style="stop-color:#a6a6a6;stop-opacity:1"
         offset="0.26238" />
      <stop
         id="stop3240"
         style="stop-color:#7b7b7b;stop-opacity:1"
         offset="0.704952" />
      <stop
         id="stop3242"
         style="stop-color:#595959;stop-opacity:1"
         offset="1" />
    </linearGradient>
    <linearGradient
       x1="24"
       y1="44"
       x2="24"
       y2="3.8990016"
       id="linearGradient3478"
       xlink:href="#linearGradient3784-0-9-8"
       gradientUnits="userSpaceOnUse"
       gradientTransform="translate(9.2e-6,1)" />
    <radialGradient
       cx="4.9929786"
       cy="43.5"
       r="2.5"
       fx="4.9929786"
       fy="43.5"
       id="radialGradient3013-896"
       xlink:href="#linearGradient3688-166-749-2-324"
       gradientUnits="userSpaceOnUse"
       gradientTransform="matrix(2.003784,0,0,1.4,27.98813,-17.4)" />
    <linearGradient
       id="linearGradient3688-166-749-2-324">
      <stop
         id="stop3216"
         style="stop-color:#181818;stop-opacity:1"
         offset="0" />
      <stop
         id="stop3218"
         style="stop-color:#181818;stop-opacity:0"
         offset="1" />
    </linearGradient>
    <radialGradient
       cx="4.9929786"
       cy="43.5"
       r="2.5"
       fx="4.9929786"
       fy="43.5"
       id="radialGradient3015-826"
       xlink:href="#linearGradient3688-464-309-8-331"
       gradientUnits="userSpaceOnUse"
       gradientTransform="matrix(2.003784,0,0,1.4,-20.01187,-104.4)" />
    <linearGradient
       id="linearGradient3688-464-309-8-331">
      <stop
         id="stop3222"
         style="stop-color:#181818;stop-opacity:1"
         offset="0" />
      <stop
         id="stop3224"
         style="stop-color:#181818;stop-opacity:0"
         offset="1" />
    </linearGradient>
    <linearGradient
       id="linearGradient3702-501-757-6-946">
      <stop
         id="stop3228"
         style="stop-color:#181818;stop-opacity:0"
         offset="0" />
      <stop
         id="stop3230"
         style="stop-color:#181818;stop-opacity:1"
         offset="0.5" />
      <stop
         id="stop3232"
         style="stop-color:#181818;stop-opacity:0"
         offset="1" />
    </linearGradient>
    <linearGradient
       x1="25.058096"
       y1="47.027729"
       x2="25.058096"
       y2="39.999443"
       id="linearGradient4395"
       xlink:href="#linearGradient3702-501-757-6-946"
       gradientUnits="userSpaceOnUse" />
    <filter
       color-interpolation-filters="sRGB"
       id="filter3174">
      <feGaussianBlur
         stdDeviation="1.71"
         id="feGaussianBlur3176" />
    </filter>
    <linearGradient
       x1="45.447727"
       y1="92.539597"
       x2="45.447727"
       y2="7.0165396"
       id="ButtonShadow"
       gradientUnits="userSpaceOnUse"
       gradientTransform="scale(1.0058652,0.994169)">
      <stop
         id="stop3750"
         style="stop-color:#000000;stop-opacity:1"
         offset="0" />
      <stop
         id="stop3752"
         style="stop-color:#000000;stop-opacity:0.58823532"
         offset="1" />
    </linearGradient>
    <linearGradient
       x1="206.6895"
       y1="-167.532"
       x2="206.6895"
       y2="-167.532"
       id="SVGID_14_"
       gradientUnits="userSpaceOnUse"
       gradientTransform="matrix(1,0,0,-1,-270.96,-122.0747)">
      <stop
         id="stop3506"
         style="stop-color:#7e9ec4;stop-opacity:1"
         offset="0" />
      <stop
         id="stop3508"
         style="stop-color:#151d89;stop-opacity:1"
         offset="1" />
    </linearGradient>
    <linearGradient
       x1="206.6895"
       y1="-167.532"
       x2="206.6895"
       y2="-167.532"
       id="linearGradient3182"
       xlink:href="#SVGID_14_"
       gradientUnits="userSpaceOnUse"
       gradientTransform="matrix(0.7283166,0,0,-0.7283166,-280.99116,-99.14398)" />
    <linearGradient
       x1="206.6895"
       y1="-167.532"
       x2="206.6895"
       y2="-167.532"
       id="linearGradient3185"
       xlink:href="#SVGID_14_"
       gradientUnits="userSpaceOnUse"
       gradientTransform="matrix(0.7283166,0,0,-0.7283166,-200.99116,-100.14398)" />
    <linearGradient
       x1="44.228275"
       y1="18.456329"
       x2="16.354654"
       y2="-9.4172926"
       id="linearGradient4273-7-3"
       xlink:href="#linearGradient3707-319-631-407-324-616-6-7"
       gradientUnits="userSpaceOnUse" />
    <linearGradient
       id="linearGradient3707-319-631-407-324-616-6-7">
      <stop
         id="stop3246-7-4"
         style="stop-color:#ffffff;stop-opacity:1;"
         offset="0" />
      <stop
         id="stop3248-3-8"
         style="stop-color:#d8d8d8;stop-opacity:1;"
         offset="1" />
    </linearGradient>
    <linearGradient
       x1="26.313066"
       y1="9.8269262"
       x2="26.313066"
       y2="23.605091"
       id="linearGradient4276"
       xlink:href="#linearGradient4260"
       gradientUnits="userSpaceOnUse"
       gradientTransform="matrix(0.92307714,0,0,0.90357109,1.8846115,1.7178603)" />
    <linearGradient
       id="linearGradient4260-7">
      <stop
         id="stop4262-3"
         style="stop-color:#000000;stop-opacity:1"
         offset="0" />
      <stop
         id="stop4264-9"
         style="stop-color:#000000;stop-opacity:0"
         offset="1" />
    </linearGradient>
    <linearGradient
       x1="26.313066"
       y1="9.8269262"
       x2="26.313066"
       y2="23.605091"
       id="linearGradient4293"
       xlink:href="#linearGradient4260-7"
       gradientUnits="userSpaceOnUse"
       gradientTransform="matrix(0.92307714,0,0,0.9229594,-6.115388,9.2719283)" />
    <linearGradient
       id="linearGradient4260-6">
      <stop
         id="stop4262-7"
         style="stop-color:#000000;stop-opacity:1"
         offset="0" />
      <stop
         id="stop4264-90"
         style="stop-color:#000000;stop-opacity:0"
         offset="1" />
    </linearGradient>
    <linearGradient
       x1="26.313066"
       y1="9.8269262"
       x2="26.313066"
       y2="23.605091"
       id="linearGradient4293-5"
       xlink:href="#linearGradient4260-6"
       gradientUnits="userSpaceOnUse"
       gradientTransform="matrix(0.92307714,0,0,0.9229594,1.884612,17.271928)" />
    <linearGradient
       id="linearGradient4260-8">
      <stop
         id="stop4262-1"
         style="stop-color:#000000;stop-opacity:1"
         offset="0" />
      <stop
         id="stop4264-8"
         style="stop-color:#000000;stop-opacity:0"
         offset="1" />
    </linearGradient>
    <linearGradient
       x1="26.313066"
       y1="9.8269262"
       x2="26.313066"
       y2="23.605091"
       id="linearGradient4293-9"
       xlink:href="#linearGradient4260-8"
       gradientUnits="userSpaceOnUse"
       gradientTransform="matrix(0.92307714,0,0,0.9229594,9.884612,9.2719283)" />
    <linearGradient
       x1="44.228275"
       y1="18.456329"
       x2="16.354654"
       y2="-9.4172926"
       id="linearGradient3065"
       xlink:href="#linearGradient3707-319-631-407-324-616-6-7"
       gradientUnits="userSpaceOnUse" />
    <linearGradient
       x1="26.313066"
       y1="9.8269262"
       x2="26.313066"
       y2="23.605091"
       id="linearGradient3067"
       xlink:href="#linearGradient4260"
       gradientUnits="userSpaceOnUse"
       gradientTransform="matrix(0.92307714,0,0,0.90357109,1.8846115,1.7178603)" />
    <linearGradient
       x1="26.313066"
       y1="9.8269262"
       x2="26.313066"
       y2="23.605091"
       id="linearGradient3069"
       xlink:href="#linearGradient4260-7"
       gradientUnits="userSpaceOnUse"
       gradientTransform="matrix(0.92307714,0,0,0.9229594,-6.115388,9.2719283)" />
    <linearGradient
       x1="26.313066"
       y1="9.8269262"
       x2="26.313066"
       y2="23.605091"
       id="linearGradient3071"
       xlink:href="#linearGradient4260-6"
       gradientUnits="userSpaceOnUse"
       gradientTransform="matrix(0.92307714,0,0,0.9229594,1.884612,17.271928)" />
    <linearGradient
       x1="26.313066"
       y1="9.8269262"
       x2="26.313066"
       y2="23.605091"
       id="linearGradient3073"
       xlink:href="#linearGradient4260-8"
       gradientUnits="userSpaceOnUse"
       gradientTransform="matrix(0.92307714,0,0,0.9229594,9.884612,9.2719283)" />
    <linearGradient
       x1="26.313066"
       y1="9.8269262"
       x2="26.313066"
       y2="23.605091"
       id="linearGradient3076"
       xlink:href="#linearGradient4260-8"
       gradientUnits="userSpaceOnUse"
       gradientTransform="matrix(0.95490733,0,0,0.92365919,8.8806357,9.248442)" />
    <linearGradient
       x1="26.313066"
       y1="9.8269262"
       x2="26.313066"
       y2="23.605091"
       id="linearGradient3079"
       xlink:href="#linearGradient4260-6"
       gradientUnits="userSpaceOnUse"
       gradientTransform="matrix(0.95490733,0,0,0.92365919,0.60477411,17.254507)" />
    <linearGradient
       x1="26.313066"
       y1="9.8269262"
       x2="26.313066"
       y2="23.605091"
       id="linearGradient3082"
       xlink:href="#linearGradient4260-7"
       gradientUnits="userSpaceOnUse"
       gradientTransform="matrix(0.95490733,0,0,0.92365919,-7.6710875,9.248442)" />
    <linearGradient
       x1="26.313066"
       y1="9.8269262"
       x2="26.313066"
       y2="23.605091"
       id="linearGradient3085"
       xlink:href="#linearGradient4260"
       gradientUnits="userSpaceOnUse"
       gradientTransform="matrix(0.95490733,0,0,0.90425618,0.60477359,1.6886465)" />
    <linearGradient
       x1="44.228275"
       y1="18.456329"
       x2="16.354654"
       y2="-9.4172926"
       id="linearGradient3088"
       xlink:href="#linearGradient3707-319-631-407-324-616-6-7"
       gradientUnits="userSpaceOnUse"
       gradientTransform="matrix(0.73148973,0.70764291,-0.73148973,0.70764291,-1.3448244,-0.03051625)" />
    <linearGradient
       x1="44.228275"
       y1="18.456329"
       x2="16.354654"
       y2="-9.4172926"
       id="linearGradient3098"
       xlink:href="#linearGradient3707-319-631-407-324-616-6-7"
       gradientUnits="userSpaceOnUse"
       gradientTransform="matrix(0.73148973,0.70764291,-0.73148973,0.70764291,-1.3448244,-0.03051625)" />
    <linearGradient
       x1="26.313066"
       y1="9.8269262"
       x2="26.313066"
       y2="23.605091"
       id="linearGradient3100"
       xlink:href="#linearGradient4260"
       gradientUnits="userSpaceOnUse"
       gradientTransform="matrix(0.95490733,0,0,0.90425618,0.60477359,1.6886465)" />
    <linearGradient
       x1="26.313066"
       y1="9.8269262"
       x2="26.313066"
       y2="23.605091"
       id="linearGradient3102"
       xlink:href="#linearGradient4260-7"
       gradientUnits="userSpaceOnUse"
       gradientTransform="matrix(0.95490733,0,0,0.92365919,-7.6710875,9.248442)" />
    <linearGradient
       x1="26.313066"
       y1="9.8269262"
       x2="26.313066"
       y2="23.605091"
       id="linearGradient3104"
       xlink:href="#linearGradient4260-6"
       gradientUnits="userSpaceOnUse"
       gradientTransform="matrix(0.95490733,0,0,0.92365919,0.60477411,17.254507)" />
    <linearGradient
       x1="26.313066"
       y1="9.8269262"
       x2="26.313066"
       y2="23.605091"
       id="linearGradient3106"
       xlink:href="#linearGradient4260-8"
       gradientUnits="userSpaceOnUse"
       gradientTransform="matrix(0.95490733,0,0,0.92365919,8.8806357,9.248442)" />
    <radialGradient
       cx="7.4956832"
       cy="8.4497671"
       r="19.99999"
       fx="7.4956832"
       fy="8.4497671"
       id="radialGradient3476-6"
       xlink:href="#linearGradient3784-0-9-8"
       gradientUnits="userSpaceOnUse"
       gradientTransform="matrix(1.9428467e-8,2.33699,-2.4722567,-4.3056275e-8,44.890112,-11.434799)" />
    <linearGradient
       id="linearGradient3784-0-9-8">
      <stop
         style="stop-color:#f34453;stop-opacity:1;"
         offset="0"
         id="stop3786-2-3-9" />
      <stop
         style="stop-color:#772953;stop-opacity:1;"
         offset="1"
         id="stop3788-0-7-1" />
    </linearGradient>
    <radialGradient
       r="19.99999"
       fy="8.4497671"
       fx="7.4956832"
       cy="8.4497671"
       cx="7.4956832"
       gradientTransform="matrix(1.9428467e-8,2.33699,-2.4722567,-4.3056275e-8,0.34773086,-18.739884)"
       gradientUnits="userSpaceOnUse"
       id="radialGradient3090"
       xlink:href="#linearGradient3784-0-9-8"
       inkscape:collect="always" />
    <linearGradient
       inkscape:collect="always"
       xlink:href="#linearGradient4041"
       id="linearGradient4262"
       x1="292"
       y1="244"
       x2="332"
       y2="244"
       gradientUnits="userSpaceOnUse"
       gradientTransform="matrix(0,-1,1,0,68,556)" />
    <linearGradient
       id="linearGradient4041">
      <stop
         style="stop-color:#572c2f;stop-opacity:1;"
         offset="0"
         id="stop4043" />
      <stop
         style="stop-color:#b0212c;stop-opacity:1;"
         offset="1"
         id="stop4045" />
    </linearGradient>
    <linearGradient
       inkscape:collect="always"
       xlink:href="#linearGradient4041-7"
       id="linearGradient4262-8"
       x1="292"
       y1="244"
       x2="332"
       y2="244"
       gradientUnits="userSpaceOnUse"
       gradientTransform="matrix(0,-1,1,0,68,556)" />
    <linearGradient
       id="linearGradient4041-7">
      <stop
         style="stop-color:#94262f;stop-opacity:1;"
         offset="0"
         id="stop4043-8" />
      <stop
         style="stop-color:#b0212c;stop-opacity:1;"
         offset="1"
         id="stop4045-8" />
    </linearGradient>
    <linearGradient
       y2="244"
       x2="332"
       y1="244"
       x1="292"
       gradientTransform="matrix(0,-1,1,0,-269.76623,335.42857)"
       gradientUnits="userSpaceOnUse"
       id="linearGradient3169"
       xlink:href="#linearGradient4041-7"
       inkscape:collect="always" />
  </defs>
  <metadata
     id="metadata4410">
    <rdf:RDF>
      <cc:Work
         rdf:about="">
        <dc:format>image/svg+xml</dc:format>
        <dc:type
           rdf:resource="http://purl.org/dc/dcmitype/StillImage" />
        <dc:title></dc:title>
      </cc:Work>
    </rdf:RDF>
  </metadata>
  <g
     id="layer1">
    <rect
       width="39"
       height="39"
       rx="2"
       ry="2"
       x="4.5000081"
       y="5.5"
       id="rect5505-21"
       style="color:#000000;fill:#920000;fill-opacity:1;fill-rule:nonzero;stroke:none;stroke-width:1;stroke-linecap:round;stroke-linejoin:round;stroke-miterlimit:4;stroke-opacity:1;stroke-dasharray:none;stroke-dashoffset:0;marker:none;visibility:visible;display:inline;overflow:visible;enable-background:accumulate" />
    <g
       transform="translate(-131.28571,-19.642857)"
       id="layer2"
       style="display:none">
      <rect
         width="86"
         height="85"
         rx="6"
         ry="6"
         x="5"
         y="7"
         id="rect3745"
         style="opacity:0.9;fill:url(#ButtonShadow);fill-opacity:1;fill-rule:nonzero;stroke:none;filter:url(#filter3174)" />
    </g>
    <path
       d=""
       inkscape:connector-curvature="0"
       id="path3510"
       style="fill:url(#linearGradient3185)" />
    <path
       d=""
       inkscape:connector-curvature="0"
       id="path6922"
       style="fill:url(#linearGradient3182)" />
    <path
       id="path3095"
       d="m 33.434393,13.632772 c 0,0 -0.530072,0.240325 -1.747254,1.251903 -1.488545,1.236691 -2.410356,1.136994 -3.499362,0.954423 l -0.0085,0.0086 c -0.207451,-0.09473 -0.417174,-0.183449 -0.629964,-0.26306 l 0,-0.0086 c -0.899279,-0.640464 -1.621305,-1.222545 -1.799436,-3.149633 -0.145728,-1.575251 -0.350268,-2.120842 -0.350268,-2.120842 -0.593422,-0.257936 -1.399949,-0.257854 -1.399949,-0.257854 0,0 -0.806745,8.3e-5 -1.399716,0.258072 0,0 -0.205095,0.545133 -0.350434,2.120669 -0.178093,1.926998 -0.900531,2.508846 -1.799443,3.149626 l -0.0015,0.01073 c -0.212596,0.07951 -0.421719,0.168447 -0.629919,0.263044 l -0.0086,-0.0085 c -1.088923,0.182803 -2.011071,0.281923 -3.499684,-0.954664 -1.216732,-1.010954 -1.747171,-1.251902 -1.747171,-1.251902 -0.600622,0.235892 -1.170784,0.806054 -1.170784,0.806054 0,0 -0.570425,0.570425 -0.807263,1.172337 0,0 0.240866,0.530582 1.251775,1.747277 1.236669,1.488523 1.137145,2.411061 0.954709,3.499639 l 0.0085,0.0086 c -0.0943,0.207667 -0.183448,0.417233 -0.263322,0.629701 l -0.0085,0 C 13.888015,22.397821 13.30589,23.119855 11.378952,23.29818 9.803745,23.443691 9.257795,23.648914 9.257795,23.648914 9.000045,24.24245 9,25.047822 9,25.047822 c 0,0 4.28e-4,0.807105 0.258222,1.399986 0,0 0.545005,0.205313 2.120519,0.350186 1.926893,0.178303 2.508073,0.901229 3.149303,1.799781 l 0.0086,0 c 0.07972,0.212813 0.168665,0.422086 0.262984,0.630024 l -0.0085,0.0085 c 0.183231,1.088863 0.282178,2.010862 -0.954364,3.499317 -1.010909,1.216995 -1.251925,1.748244 -1.251925,1.748244 0.237715,0.601867 0.8073,1.171452 0.8073,1.171452 0,0 0.57062,0.570642 1.172329,0.807285 0,0 0.530395,-0.240071 1.747067,-1.251671 1.488658,-1.236496 2.410933,-1.136326 3.499617,-0.954573 l 0.0085,-0.0085 c 0.208313,0.09451 0.417301,0.183666 0.630024,0.262999 l -0.0015,0.01073 c 0.899542,0.640412 1.62144,1.22241 1.799788,3.149288 0.145511,1.575297 0.350584,2.121412 0.350584,2.121412 0.593684,0.257284 1.399243,0.257666 1.399243,0.257666 0,0 0.807113,-2.17e-4 1.399761,-0.258544 0,0 0.205306,-0.544487 0.350396,-2.120279 0.178304,-1.92687 0.901485,-2.508313 1.799564,-3.149438 l -0.0015,-0.01073 c 0.212596,-0.07951 0.421914,-0.168875 0.629965,-0.263082 l 0.0085,0.0086 c 1.088818,-0.183239 2.010771,-0.282119 3.499384,0.954483 1.216733,1.01094 1.747922,1.252083 1.747922,1.252083 0.601972,-0.237948 1.171624,-0.807585 1.171624,-0.807585 0,0 0.570612,-0.570612 0.807322,-1.172397 0,0 -0.240092,-0.530432 -1.25191,-1.747172 -1.236661,-1.488522 -1.136431,-2.410926 -0.954423,-3.499421 l -0.0086,-0.0086 c 0.09452,-0.208305 0.183667,-0.417301 0.263045,-0.629919 l 0.01283,0 c 0.64042,-0.899279 1.222485,-1.621282 3.149438,-1.799631 1.575432,-0.145518 2.121592,-0.350673 2.121592,-0.350673 C 38.99994,25.853959 39,25.048249 39,25.048249 c 0,0 -1.28e-4,-0.806744 -0.257877,-1.399948 0,0 -0.545222,-0.205095 -2.120819,-0.350269 -1.927058,-0.178093 -2.508568,-0.900569 -3.149648,-1.799443 l -0.0086,0 c -0.07951,-0.212596 -0.16802,-0.422056 -0.263067,-0.629934 l 0.0086,-0.0086 c -0.182804,-1.088473 -0.282238,-2.010771 0.954363,-3.499406 1.010955,-1.216733 1.25233,-1.747727 1.25233,-1.747727 -0.23752,-0.601739 -0.807682,-1.171909 -0.807682,-1.171909 0,0 -0.570642,-0.57059 -1.172419,-0.8073 z m -4.474268,16.376157 c -2.739998,2.739975 -7.182187,2.74002 -9.922192,4.5e-5 -2.739998,-2.740005 -2.739953,-7.182194 4.5e-5,-9.922192 2.739938,-2.739938 7.182126,-2.739975 9.922124,2.3e-5 2.739998,2.739975 2.73996,7.182186 2.3e-5,9.922124 z"
       inkscape:connector-curvature="0"
       style="fill:#ffffff;fill-opacity:1;stroke:none;display:inline;enable-background:new" />
  </g>
</svg>
