<?xml version="1.0" encoding="UTF-8" standalone="no"?>
<!-- Created with Inkscape (http://www.inkscape.org/) -->

<svg
   xmlns:dc="http://purl.org/dc/elements/1.1/"
   xmlns:cc="http://creativecommons.org/ns#"
   xmlns:rdf="http://www.w3.org/1999/02/22-rdf-syntax-ns#"
   xmlns:svg="http://www.w3.org/2000/svg"
   xmlns="http://www.w3.org/2000/svg"
   xmlns:xlink="http://www.w3.org/1999/xlink"
   xmlns:sodipodi="http://sodipodi.sourceforge.net/DTD/sodipodi-0.dtd"
   xmlns:inkscape="http://www.inkscape.org/namespaces/inkscape"
   width="24"
   height="24"
   id="svg5043"
   version="1.1"
   inkscape:version="0.91 r"
   sodipodi:docname="color-picker.svg">
  <defs
     id="defs5045">
    <linearGradient
       id="linearGradient3958">
      <stop
         offset="0"
         style="stop-color:#9bb8ed;stop-opacity:1"
         id="stop3960" />
      <stop
         offset="0.26238"
         style="stop-color:#74a7de;stop-opacity:1"
         id="stop3962" />
      <stop
         offset="0.66093999"
         style="stop-color:#4094d6;stop-opacity:1"
         id="stop3964" />
      <stop
         offset="1"
         style="stop-color:#195f90;stop-opacity:1"
         id="stop3966" />
    </linearGradient>
    <linearGradient
       id="linearGradient3948">
      <stop
         offset="0"
         style="stop-color:#487ede;stop-opacity:1;"
         id="stop3950" />
      <stop
         offset="0.26238"
         style="stop-color:#366eaa;stop-opacity:1;"
         id="stop3952" />
      <stop
         offset="0.66093999"
         style="stop-color:#275273;stop-opacity:1;"
         id="stop3954" />
      <stop
         offset="1"
         style="stop-color:#0a1f2e;stop-opacity:1;"
         id="stop3956" />
    </linearGradient>
    <radialGradient
       inkscape:collect="always"
       xlink:href="#linearGradient3978"
       id="radialGradient4228"
       gradientUnits="userSpaceOnUse"
       cx="159.98289"
       cy="34.237293"
       fx="159.98289"
       fy="34.237293"
       r="9.7227173"
       gradientTransform="matrix(1.4371192,0,0,1.5391363,-71.773284,-19.123326)" />
    <linearGradient
       inkscape:collect="always"
       id="linearGradient3978">
      <stop
         style="stop-color:#ffffff;stop-opacity:1;"
         offset="0"
         id="stop3980" />
      <stop
         style="stop-color:#ffffff;stop-opacity:0;"
         offset="1"
         id="stop3982" />
    </linearGradient>
  </defs>
  <sodipodi:namedview
     id="base"
     pagecolor="#ffffff"
     bordercolor="#666666"
     borderopacity="1.0"
     inkscape:pageopacity="0.0"
     inkscape:pageshadow="2"
     inkscape:zoom="43.688791"
     inkscape:cx="7.7082814"
     inkscape:cy="12"
     inkscape:document-units="px"
     inkscape:current-layer="g4208"
     showgrid="true"
     fit-margin-top="0"
     fit-margin-left="0"
     fit-margin-right="0"
     fit-margin-bottom="0"
     inkscape:window-width="1855"
     inkscape:window-height="1056"
     inkscape:window-x="65"
     inkscape:window-y="24"
     inkscape:window-maximized="1">
    <inkscape:grid
       type="xygrid"
       id="grid4726" />
  </sodipodi:namedview>
  <metadata
     id="metadata5048">
    <rdf:RDF>
      <cc:Work
         rdf:about="">
        <dc:format>image/svg+xml</dc:format>
        <dc:type
           rdf:resource="http://purl.org/dc/dcmitype/StillImage" />
        <dc:title />
      </cc:Work>
    </rdf:RDF>
  </metadata>
  <g
     inkscape:label="Capa 1"
     inkscape:groupmode="layer"
     id="layer1"
     transform="translate(-157.71428,-264.9351)">
    <g
       style="display:inline;enable-background:new"
       transform="matrix(0.34883873,0,0,0.34883873,114.48787,267.51642)"
       id="g4208">
      <path
         sodipodi:nodetypes="cccsscccc"
         inkscape:connector-curvature="0"
         id="path4216"
         d="m 157.33332,2.7329772 c -4.30067,6.9129418 -8.38009,14.0057368 -12.54024,21.0267488 -1.12487,2.161037 -2.1662,4.053749 -2.88172,6.093177 -0.45215,1.497369 -0.69669,3.079381 -0.69669,4.719573 0,9.215535 7.65208,16.694606 17.10035,16.694606 9.44828,0 17.10035,-7.479071 17.10035,-16.694606 -0.0369,-2.01773 -0.41383,-3.753897 -0.85503,-5.177438 -0.88518,-2.642665 -2.92753,-5.271973 -4.18011,-7.431567 -4.2371,-6.49837 -8.90761,-12.6537074 -13.04691,-19.2304938 z"
         style="color:#000000;display:inline;overflow:visible;visibility:visible;fill:#353945;stroke:#353945;stroke-width:5.73330834;stroke-linecap:round;stroke-linejoin:round;stroke-miterlimit:4;stroke-dasharray:none;stroke-dashoffset:0;stroke-opacity:1;marker:none;enable-background:accumulate;fill-opacity:1" />
      <circle
         style="color:#000000;display:inline;overflow:visible;visibility:visible;opacity:0.5;fill:url(#radialGradient4228);fill-opacity:1;stroke:none;stroke-width:0.82709104;marker:none;enable-background:accumulate"
         id="path4218"
         cx="158.14128"
         cy="33.572556"
         r="0" />
    </g>
  </g>
</svg>
