<?xml version="1.0" encoding="UTF-8" standalone="no"?>
<!-- Created with Inkscape (http://www.inkscape.org/) -->

<svg
   xmlns:dc="http://purl.org/dc/elements/1.1/"
   xmlns:cc="http://creativecommons.org/ns#"
   xmlns:rdf="http://www.w3.org/1999/02/22-rdf-syntax-ns#"
   xmlns:svg="http://www.w3.org/2000/svg"
   xmlns="http://www.w3.org/2000/svg"
   xmlns:sodipodi="http://sodipodi.sourceforge.net/DTD/sodipodi-0.dtd"
   xmlns:inkscape="http://www.inkscape.org/namespaces/inkscape"
   width="22"
   height="22"
   id="svg11703"
   sodipodi:version="0.32"
   inkscape:version="0.91 r"
   version="1.0"
   sodipodi:docname="distribute-horizontal-left.svg"
   inkscape:output_extension="org.inkscape.output.svg.inkscape"
   inkscape:export-filename="/home/andreas/project/inkscape/22x22/actions/distribute-horisontal-left.png"
   inkscape:export-xdpi="90"
   inkscape:export-ydpi="90"
   sodipodi:modified="true">
  <defs
     id="defs11705" />
  <sodipodi:namedview
     id="base"
     pagecolor="#ffffff"
     bordercolor="#666666"
     borderopacity="1.0"
     inkscape:pageopacity="0.0"
     inkscape:pageshadow="2"
     inkscape:zoom="24.464479"
     inkscape:cx="0.33582696"
     inkscape:cy="9.8019802"
     inkscape:current-layer="g7308"
     showgrid="false"
     inkscape:grid-bbox="true"
     inkscape:document-units="px"
     width="22px"
     height="22px"
     inkscape:window-width="971"
     inkscape:window-height="807"
     inkscape:window-x="0"
     inkscape:window-y="47" />
  <metadata
     id="metadata11708">
    <rdf:RDF>
      <cc:Work
         rdf:about="">
        <dc:format>image/svg+xml</dc:format>
        <dc:type
           rdf:resource="http://purl.org/dc/dcmitype/StillImage" />
      </cc:Work>
    </rdf:RDF>
  </metadata>
  <g
     id="layer1"
     inkscape:label="Layer 1"
     inkscape:groupmode="layer">
    <g
       style="display:inline"
       id="g7308"
       inkscape:export-filename="/home/lapo/Desktop/align-distribute.tar.gz_FILES/align-stuff.png"
       inkscape:export-xdpi="90"
       inkscape:export-ydpi="90"
       transform="translate(-59.996137,70.00002)">
      <g
         transform="translate(-69,-539.49993)"
         id="g2468"
         inkscape:export-filename="/home/lapo/Desktop/align-distribute.tar.gz_FILES/align-stuff.png"
         inkscape:export-xdpi="90"
         inkscape:export-ydpi="90"
         style="fill:#f3f3f3;fill-opacity:1;stroke:#353945;stroke-opacity:1">
        <rect
           transform="matrix(0,-1,1,0,0,0)"
           y="129.49626"
           x="-489.49979"
           height="8.0036144"
           width="17.999748"
           id="rect2470"
           style="color:#000000;display:inline;fill:#f3f3f3;fill-opacity:1;fill-rule:evenodd;stroke:#353945;stroke-width:1.00024867;stroke-linecap:butt;stroke-linejoin:round;stroke-miterlimit:0;stroke-dasharray:none;stroke-dashoffset:0;stroke-opacity:1;marker:none;marker-start:none;marker-mid:none;marker-end:none" />
      </g>
      <g
         transform="translate(60,-69.499896)"
         id="g2474"
         style="fill:#f3f3f3;fill-opacity:1;stroke:#353945;stroke-opacity:1">
        <rect
           inkscape:export-ydpi="90"
           inkscape:export-xdpi="90"
           inkscape:export-filename="/home/lapo/Desktop/align-distribute.tar.gz_FILES/align-stuff.png"
           transform="matrix(0,-1,1,0,0,0)"
           y="12.499998"
           x="-16.499878"
           height="7.999999"
           width="12"
           id="rect2476"
           style="fill:#f3f3f3;fill-opacity:1;stroke:#353945;stroke-width:0.99999988;stroke-linecap:butt;stroke-linejoin:round;stroke-miterlimit:3;stroke-dasharray:none;stroke-dashoffset:0;stroke-opacity:1" />
      </g>
      <g
         id="g3690"
         transform="matrix(0,0.956518,-1,0,559,-248.39052)"
         inkscape:export-filename="/home/lapo/Desktop/align-distribute.tar.gz_FILES/align-stuff.png"
         inkscape:export-xdpi="90"
         inkscape:export-ydpi="90"
         style="fill:#ff7600;fill-opacity:1;stroke:none;stroke-opacity:1">
        <path
           sodipodi:nodetypes="cccc"
           id="path3692"
           d="m 198.49998,491.5 -12.00009,0 0,-2 12.00009,0"
           style="fill:#ff7600;fill-opacity:1;stroke:none;stroke-width:0.99999976;stroke-linecap:butt;stroke-linejoin:round;stroke-miterlimit:0;stroke-dashoffset:0;stroke-opacity:1"
           inkscape:connector-curvature="0" />
        <path
           sodipodi:nodetypes="cccc"
           id="path3694"
           d="m -197.49989,-489.5 -12.00009,0 0,-2 12.00009,0"
           style="fill:#ff7600;fill-opacity:1;stroke:none;stroke-width:0.99999976;stroke-linecap:butt;stroke-linejoin:round;stroke-miterlimit:0;stroke-dashoffset:0;stroke-opacity:1"
           transform="scale(-1,-1)"
           inkscape:connector-curvature="0" />
      </g>
      <g
         id="g3696"
         transform="matrix(0,0.956518,-1,0,571,-248.39052)"
         inkscape:export-filename="/home/lapo/Desktop/align-distribute.tar.gz_FILES/align-stuff.png"
         inkscape:export-xdpi="90"
         inkscape:export-ydpi="90"
         style="fill:#ff7600;fill-opacity:1;stroke:none;stroke-opacity:1">
        <path
           sodipodi:nodetypes="cccc"
           id="path3698"
           d="m 198.49998,491.5 -12.00009,0 0,-2 12.00009,0"
           style="fill:#ff7600;fill-opacity:1;stroke:none;stroke-width:0.99999976;stroke-linecap:butt;stroke-linejoin:round;stroke-miterlimit:0;stroke-dashoffset:0;stroke-opacity:1"
           inkscape:connector-curvature="0" />
        <path
           sodipodi:nodetypes="cccc"
           id="path3700"
           d="m -197.49989,-489.5 -12.00009,0 0,-2 12.00009,0"
           style="fill:#ff7600;fill-opacity:1;stroke:none;stroke-width:0.99999976;stroke-linecap:butt;stroke-linejoin:round;stroke-miterlimit:0;stroke-dashoffset:0;stroke-opacity:1"
           transform="scale(-1,-1)"
           inkscape:connector-curvature="0" />
      </g>
    </g>
  </g>
</svg>
