<?xml version="1.0" encoding="UTF-8" standalone="no"?>
<!-- Created with Inkscape (http://www.inkscape.org/) -->

<svg
   xmlns:dc="http://purl.org/dc/elements/1.1/"
   xmlns:cc="http://creativecommons.org/ns#"
   xmlns:rdf="http://www.w3.org/1999/02/22-rdf-syntax-ns#"
   xmlns:svg="http://www.w3.org/2000/svg"
   xmlns="http://www.w3.org/2000/svg"
   xmlns:sodipodi="http://sodipodi.sourceforge.net/DTD/sodipodi-0.dtd"
   xmlns:inkscape="http://www.inkscape.org/namespaces/inkscape"
   width="22"
   height="22"
   id="svg8472"
   sodipodi:version="0.32"
   inkscape:version="0.91 r"
   version="1.0"
   sodipodi:docname="node-distribute-vertical.svg"
   inkscape:output_extension="org.inkscape.output.svg.inkscape"
   sodipodi:modified="true">
  <defs
     id="defs8474">
    <linearGradient
       id="linearGradient5975">
      <stop
         style="stop-color:#d3d7cf;stop-opacity:1"
         offset="0"
         id="stop5977" />
      <stop
         style="stop-color:#eeeeec;stop-opacity:1"
         offset="1"
         id="stop5979" />
    </linearGradient>
    <linearGradient
       id="linearGradient10024">
      <stop
         style="stop-color:#555753;stop-opacity:0;"
         offset="0"
         id="stop10026" />
      <stop
         id="stop10032"
         offset="0.05"
         style="stop-color:#555753;stop-opacity:1;" />
      <stop
         style="stop-color:#555753;stop-opacity:1;"
         offset="0.94999999"
         id="stop10034" />
      <stop
         style="stop-color:#555753;stop-opacity:0;"
         offset="1"
         id="stop10028" />
    </linearGradient>
  </defs>
  <sodipodi:namedview
     id="base"
     pagecolor="#ffffff"
     bordercolor="#666666"
     borderopacity="1.0"
     inkscape:pageopacity="0.0"
     inkscape:pageshadow="2"
     inkscape:zoom="38.291635"
     inkscape:cx="11.012861"
     inkscape:cy="11.00745"
     inkscape:current-layer="g10324"
     showgrid="false"
     inkscape:grid-bbox="true"
     inkscape:document-units="px"
     width="22px"
     height="22px"
     inkscape:showpageshadow="false"
     showborder="true"
     inkscape:window-width="872"
     inkscape:window-height="626"
     inkscape:window-x="238"
     inkscape:window-y="272" />
  <metadata
     id="metadata8477">
    <rdf:RDF>
      <cc:Work
         rdf:about="">
        <dc:format>image/svg+xml</dc:format>
        <dc:type
           rdf:resource="http://purl.org/dc/dcmitype/StillImage" />
        <dc:title>Node Distribute Vertical</dc:title>
        <dc:date>2006-05-01</dc:date>
        <dc:creator>
          <cc:Agent>
            <dc:title>Lapo Calamandrei</dc:title>
          </cc:Agent>
        </dc:creator>
        <dc:subject>
          <rdf:Bag>
            <rdf:li>node</rdf:li>
            <rdf:li>vertex</rdf:li>
            <rdf:li>distribute</rdf:li>
            <rdf:li>vertical</rdf:li>
          </rdf:Bag>
        </dc:subject>
        <cc:license
           rdf:resource="http://creativecommons.org/licenses/GPL/2.0/" />
      </cc:Work>
      <cc:License
         rdf:about="http://creativecommons.org/licenses/GPL/2.0/">
        <cc:permits
           rdf:resource="http://web.resource.org/cc/Reproduction" />
        <cc:permits
           rdf:resource="http://web.resource.org/cc/Distribution" />
        <cc:requires
           rdf:resource="http://web.resource.org/cc/Notice" />
        <cc:permits
           rdf:resource="http://web.resource.org/cc/DerivativeWorks" />
        <cc:requires
           rdf:resource="http://web.resource.org/cc/ShareAlike" />
        <cc:requires
           rdf:resource="http://web.resource.org/cc/SourceCode" />
      </cc:License>
    </rdf:RDF>
  </metadata>
  <g
     id="layer1"
     inkscape:label="Layer 1"
     inkscape:groupmode="layer">
    <g
       id="g10324"
       transform="translate(-30,30)">
      <g
         id="g10110"
         transform="matrix(-0.95651793,0,0,-1,230.39049,464.99254)"
         inkscape:export-filename="/home/lapo/Desktop/align-distribute.tar.gz_FILES/align-stuff.png"
         inkscape:export-xdpi="90"
         inkscape:export-ydpi="90"
         style="fill:#ff7600;fill-opacity:1;stroke:none">
        <rect
           y="489.5"
           x="186.49989"
           height="1.9999999"
           width="3.0000916"
           id="rect10113"
           style="fill:#ff7600;fill-opacity:1;stroke:none;stroke-width:0.99999976;stroke-linecap:butt;stroke-linejoin:round;stroke-miterlimit:0;stroke-dasharray:none;stroke-dashoffset:0;stroke-opacity:1" />
        <rect
           y="489.5"
           x="191.49989"
           height="1.9999999"
           width="3.0000916"
           id="rect10115"
           style="fill:#ff7600;fill-opacity:1;stroke:none;stroke-width:0.99999976;stroke-linecap:butt;stroke-linejoin:round;stroke-miterlimit:0;stroke-dasharray:none;stroke-dashoffset:0;stroke-opacity:1" />
        <rect
           y="489.5"
           x="196.49989"
           height="1.9999999"
           width="3.0000916"
           id="rect10117"
           style="fill:#ff7600;fill-opacity:1;stroke:none;stroke-width:0.99999976;stroke-linecap:butt;stroke-linejoin:round;stroke-miterlimit:0;stroke-dasharray:none;stroke-dashoffset:0;stroke-opacity:1" />
        <rect
           y="489.5"
           x="201.49989"
           height="1.9999999"
           width="3.0000916"
           id="rect10119"
           style="fill:#ff7600;fill-opacity:1;stroke:none;stroke-width:0.99999976;stroke-linecap:butt;stroke-linejoin:round;stroke-miterlimit:0;stroke-dasharray:none;stroke-dashoffset:0;stroke-opacity:1" />
        <rect
           transform="scale(-1,-1)"
           y="-491.5"
           x="-209.49998"
           height="1.9999999"
           width="3.0000916"
           id="rect10121"
           style="fill:#ff7600;fill-opacity:1;stroke:none;stroke-width:0.99999976;stroke-linecap:butt;stroke-linejoin:round;stroke-miterlimit:0;stroke-dasharray:none;stroke-dashoffset:0;stroke-opacity:1" />
      </g>
      <path
         sodipodi:nodetypes="czzc"
         id="path10123"
         d="m 44.527783,-28.990926 0,6.081429 c 0,5.163815 -7.055566,2.606585 -7.055566,7.818984 l 0,6.0814382"
         style="fill:none;fill-opacity:1;fill-rule:evenodd;stroke:#353945;stroke-width:2;stroke-linecap:square;stroke-linejoin:miter;stroke-miterlimit:4;stroke-dasharray:none;stroke-opacity:1"
         inkscape:connector-curvature="0" />
      <g
         id="g10125"
         transform="matrix(-0.95651793,0,0,-1,230.39049,477.99254)"
         inkscape:export-filename="/home/lapo/Desktop/align-distribute.tar.gz_FILES/align-stuff.png"
         inkscape:export-xdpi="90"
         inkscape:export-ydpi="90"
         style="fill:#ff7600;fill-opacity:1;stroke:none">
        <rect
           y="489.5"
           x="186.49989"
           height="1.9999999"
           width="3.0000916"
           id="rect10127"
           style="fill:#ff7600;fill-opacity:1;stroke:none;stroke-width:0.99999976;stroke-linecap:butt;stroke-linejoin:round;stroke-miterlimit:0;stroke-dasharray:none;stroke-dashoffset:0;stroke-opacity:1" />
        <rect
           y="489.5"
           x="191.49989"
           height="1.9999999"
           width="3.0000916"
           id="rect10129"
           style="fill:#ff7600;fill-opacity:1;stroke:none;stroke-width:0.99999976;stroke-linecap:butt;stroke-linejoin:round;stroke-miterlimit:0;stroke-dasharray:none;stroke-dashoffset:0;stroke-opacity:1" />
        <rect
           y="489.5"
           x="196.49989"
           height="1.9999999"
           width="3.0000916"
           id="rect10131"
           style="fill:#ff7600;fill-opacity:1;stroke:none;stroke-width:0.99999976;stroke-linecap:butt;stroke-linejoin:round;stroke-miterlimit:0;stroke-dasharray:none;stroke-dashoffset:0;stroke-opacity:1" />
        <rect
           y="489.5"
           x="201.49989"
           height="1.9999999"
           width="3.0000916"
           id="rect10133"
           style="fill:#ff7600;fill-opacity:1;stroke:none;stroke-width:0.99999976;stroke-linecap:butt;stroke-linejoin:round;stroke-miterlimit:0;stroke-dasharray:none;stroke-dashoffset:0;stroke-opacity:1" />
        <rect
           transform="scale(-1,-1)"
           y="-491.5"
           x="-209.49998"
           height="1.9999999"
           width="3.0000916"
           id="rect10135"
           style="fill:#ff7600;fill-opacity:1;stroke:none;stroke-width:0.99999976;stroke-linecap:butt;stroke-linejoin:round;stroke-miterlimit:0;stroke-dasharray:none;stroke-dashoffset:0;stroke-opacity:1" />
      </g>
      <g
         transform="translate(13.0064,-446.001)"
         id="g9924"
         style="fill:#f3f3f3;fill-opacity:1">
        <rect
           ry="0.64931798"
           rx="0.64931798"
           y="430.5"
           x="21.5"
           height="6"
           width="6"
           id="rect9926"
           style="fill:#f3f3f3;fill-opacity:1;stroke:#353945;stroke-width:1;stroke-linecap:round;stroke-linejoin:round;stroke-miterlimit:4;stroke-dasharray:none;stroke-dashoffset:0;stroke-opacity:1" />
      </g>
      <g
         transform="translate(20.0064,-459.001)"
         id="g9934"
         style="stroke:#353945;stroke-opacity:1;fill:#f3f3f3;fill-opacity:1">
        <rect
           ry="0.64931798"
           rx="0.64931798"
           y="430.5"
           x="21.5"
           height="6"
           width="6"
           id="rect9936"
           style="fill:#f3f3f3;fill-opacity:1;stroke:#353945;stroke-width:1;stroke-linecap:round;stroke-linejoin:round;stroke-miterlimit:4;stroke-dasharray:none;stroke-dashoffset:0;stroke-opacity:1" />
      </g>
    </g>
  </g>
</svg>
