<?xml version="1.0" encoding="UTF-8" standalone="no"?>
<svg
   xmlns:dc="http://purl.org/dc/elements/1.1/"
   xmlns:cc="http://creativecommons.org/ns#"
   xmlns:rdf="http://www.w3.org/1999/02/22-rdf-syntax-ns#"
   xmlns:svg="http://www.w3.org/2000/svg"
   xmlns="http://www.w3.org/2000/svg"
   xmlns:xlink="http://www.w3.org/1999/xlink"
   xmlns:sodipodi="http://sodipodi.sourceforge.net/DTD/sodipodi-0.dtd"
   xmlns:inkscape="http://www.inkscape.org/namespaces/inkscape"
   version="1.1"
   width="24"
   height="24"
   id="svg3879"
   inkscape:version="0.91 r"
   sodipodi:docname="document-properties.svg">
  <sodipodi:namedview
     pagecolor="#ffffff"
     bordercolor="#666666"
     borderopacity="1"
     objecttolerance="10"
     gridtolerance="10"
     guidetolerance="10"
     inkscape:pageopacity="0"
     inkscape:pageshadow="2"
     inkscape:window-width="1317"
     inkscape:window-height="933"
     id="namedview46"
     showgrid="true"
     inkscape:zoom="38.291667"
     inkscape:cx="12"
     inkscape:cy="12"
     inkscape:window-x="161"
     inkscape:window-y="49"
     inkscape:window-maximized="0"
     inkscape:current-layer="svg3879"
     showguides="false">
    <inkscape:grid
       type="xygrid"
       id="grid4184" />
  </sodipodi:namedview>
  <defs
     id="defs3881">
    <linearGradient
       x1="12"
       y1="16"
       x2="12"
       y2="8"
       id="linearGradient3830"
       xlink:href="#linearGradient3805"
       gradientUnits="userSpaceOnUse" />
    <linearGradient
       id="linearGradient3805">
      <stop
         id="stop3807"
         style="stop-color:#ffffff;stop-opacity:1"
         offset="0" />
      <stop
         id="stop3809"
         style="stop-color:#ffffff;stop-opacity:0"
         offset="1" />
    </linearGradient>
    <linearGradient
       x1="12.47939"
       y1="2"
       x2="12.47939"
       y2="22.006775"
       id="linearGradient3814"
       xlink:href="#linearGradient3805"
       gradientUnits="userSpaceOnUse"
       gradientTransform="translate(0,8)" />
    <linearGradient
       x1="86.132919"
       y1="105.105"
       x2="84.63858"
       y2="20.895"
       id="linearGradient3610"
       xlink:href="#linearGradient5128"
       gradientUnits="userSpaceOnUse"
       gradientTransform="matrix(0.15623116,0,0,0.15623125,2.0012002,10.157431)" />
    <linearGradient
       id="linearGradient5128">
      <stop
         id="stop5130"
         style="stop-color:#ffffff;stop-opacity:1"
         offset="0" />
      <stop
         id="stop5132"
         style="stop-color:#959595;stop-opacity:1"
         offset="1" />
    </linearGradient>
    <linearGradient
       x1="32.036148"
       y1="19"
       x2="32.036148"
       y2="47.012184"
       id="linearGradient3614-2"
       xlink:href="#linearGradient3309-1"
       gradientUnits="userSpaceOnUse"
       gradientTransform="matrix(0.77777782,0,0,0.77777782,-12.111112,-5.666669)" />
    <linearGradient
       x1="63.9995"
       y1="3.1001"
       x2="63.9995"
       y2="122.8994"
       id="linearGradient3309-1"
       gradientUnits="userSpaceOnUse">
      <stop
         id="stop3311-5"
         style="stop-color:#f6f6f6;stop-opacity:1"
         offset="0" />
      <stop
         id="stop3313-0"
         style="stop-color:#d2d2d2;stop-opacity:1"
         offset="1" />
    </linearGradient>
    <linearGradient
       x1="25.922546"
       y1="19"
       x2="25.922546"
       y2="47.044857"
       id="linearGradient3616-9"
       xlink:href="#linearGradient3397-0"
       gradientUnits="userSpaceOnUse"
       gradientTransform="matrix(0.77777782,0,0,0.77777782,-12.111112,-5.666669)" />
    <linearGradient
       id="linearGradient3397-0">
      <stop
         id="stop3399-4"
         style="stop-color:#aaaaaa;stop-opacity:1"
         offset="0" />
      <stop
         id="stop3401-0"
         style="stop-color:#8c8c8c;stop-opacity:1"
         offset="1" />
    </linearGradient>
    <linearGradient
       id="linearGradient10691">
      <stop
         id="stop10693"
         style="stop-color:#000000;stop-opacity:1"
         offset="0" />
      <stop
         id="stop10695"
         style="stop-color:#000000;stop-opacity:0"
         offset="1" />
    </linearGradient>
    <radialGradient
       cx="6.702713"
       cy="73.615715"
       r="7.228416"
       fx="6.702713"
       fy="73.615715"
       id="radialGradient3877"
       xlink:href="#linearGradient10691"
       gradientUnits="userSpaceOnUse"
       gradientTransform="matrix(1.6600963,0,0,0.36315008,0.8728521,2.6414479)" />
    <linearGradient
       x1="12"
       y1="16"
       x2="12"
       y2="8"
       id="linearGradient3011"
       xlink:href="#linearGradient3805"
       gradientUnits="userSpaceOnUse"
       gradientTransform="matrix(1.0116033,0,0,1.0116033,-0.13923977,-0.1392394)" />
    <linearGradient
       x1="12.47939"
       y1="2"
       x2="12.47939"
       y2="22.006775"
       id="linearGradient3014"
       xlink:href="#linearGradient3805"
       gradientUnits="userSpaceOnUse"
       gradientTransform="matrix(0.77126278,0,0,0.77511055,2.4910193,2.8686168)" />
    <linearGradient
       x1="86.132919"
       y1="105.105"
       x2="84.63858"
       y2="20.895"
       id="linearGradient3017"
       xlink:href="#linearGradient2867-449-88-871-390-598-476-591-434-148-57-177-641-289-620-227-114-444-680-744-4-1-5"
       gradientUnits="userSpaceOnUse"
       gradientTransform="matrix(0.15623116,0,0,0.15623125,2.0012002,2.157431)" />
    <linearGradient
       x1="32.036148"
       y1="19"
       x2="32.036148"
       y2="47.012184"
       id="linearGradient3021"
       xlink:href="#linearGradient2867-449-88-871-390-598-476-591-434-148-57-177-641-289-620-227-114-444-680-744-4-1-5"
       gradientUnits="userSpaceOnUse"
       gradientTransform="matrix(0.62962972,0,0,0.62962972,-7.9962492,-8.9336363)" />
    <radialGradient
       cx="6.702713"
       cy="73.615715"
       r="7.228416"
       fx="6.702713"
       fy="73.615715"
       id="radialGradient3026"
       xlink:href="#linearGradient10691"
       gradientUnits="userSpaceOnUse"
       gradientTransform="matrix(1.6600963,0,0,0.36315008,0.8728521,-5.3585521)" />
    <linearGradient
       x1="32.036148"
       y1="19"
       x2="32.036148"
       y2="47.012184"
       id="linearGradient3021-0"
       xlink:href="#linearGradient3309-1-9"
       gradientUnits="userSpaceOnUse"
       gradientTransform="matrix(0.77777782,0,0,0.77777782,-12.111112,-13.666669)" />
    <linearGradient
       x1="63.9995"
       y1="3.1001"
       x2="63.9995"
       y2="122.8994"
       id="linearGradient3309-1-9"
       gradientUnits="userSpaceOnUse">
      <stop
         id="stop3311-5-9"
         style="stop-color:#f6f6f6;stop-opacity:1"
         offset="0" />
      <stop
         id="stop3313-0-9"
         style="stop-color:#d2d2d2;stop-opacity:1"
         offset="1" />
    </linearGradient>
    <linearGradient
       x1="25.922546"
       y1="19"
       x2="25.922546"
       y2="47.044857"
       id="linearGradient3023"
       xlink:href="#linearGradient3397-0-3"
       gradientUnits="userSpaceOnUse"
       gradientTransform="matrix(0.77777782,0,0,0.77777782,-12.111112,-13.666669)" />
    <linearGradient
       id="linearGradient3397-0-3">
      <stop
         id="stop3399-4-5"
         style="stop-color:#aaaaaa;stop-opacity:1"
         offset="0" />
      <stop
         id="stop3401-0-8"
         style="stop-color:#8c8c8c;stop-opacity:1"
         offset="1" />
    </linearGradient>
    <linearGradient
       x1="24.481066"
       y1="5.0808945"
       x2="24.481066"
       y2="45.074459"
       id="linearGradient3067"
       xlink:href="#linearGradient3805"
       gradientUnits="userSpaceOnUse"
       gradientTransform="matrix(0.5384199,0,0,0.5384199,-32.142374,-2.1724044)" />
    <linearGradient
       x1="71.204407"
       y1="6.2375584"
       x2="71.204407"
       y2="44.340794"
       id="linearGradient3032"
       xlink:href="#linearGradient4011-5"
       gradientUnits="userSpaceOnUse"
       gradientTransform="matrix(0.45945944,0,0,-0.45945944,-52.178983,22.938759)" />
    <linearGradient
       id="linearGradient4011-5">
      <stop
         id="stop4013-4"
         style="stop-color:#ffffff;stop-opacity:1"
         offset="0" />
      <stop
         id="stop4015-7"
         style="stop-color:#ffffff;stop-opacity:0.23529412"
         offset="0.507761" />
      <stop
         id="stop4017-6"
         style="stop-color:#ffffff;stop-opacity:0.15686275"
         offset="0.83456558" />
      <stop
         id="stop4019-5"
         style="stop-color:#ffffff;stop-opacity:0.39215687"
         offset="1" />
    </linearGradient>
    <linearGradient
       x1="71.204407"
       y1="6.2375584"
       x2="71.204407"
       y2="44.340794"
       id="linearGradient3081"
       xlink:href="#linearGradient4011-5"
       gradientUnits="userSpaceOnUse"
       gradientTransform="matrix(0.5135135,0,0,0.5135135,-56.056471,-1.7331484)" />
    <radialGradient
       cx="23.895569"
       cy="3.9900031"
       r="20.397499"
       fx="23.895569"
       fy="3.9900031"
       id="radialGradient3057"
       xlink:href="#linearGradient2867-449-88-871-390-598-476-591-434-148-57-177-641-289-620-227-114-444-680-744-4-1-5"
       gradientUnits="userSpaceOnUse"
       gradientTransform="matrix(0,1.2316137,-1.6257082,0,-12.733716,-29.432689)" />
    <linearGradient
       id="linearGradient2867-449-88-871-390-598-476-591-434-148-57-177-641-289-620-227-114-444-680-744-4-1-5">
      <stop
         id="stop5430-5-0-9"
         style="stop-color:#737373;stop-opacity:1"
         offset="0" />
      <stop
         id="stop5432-2-0-0"
         style="stop-color:#636363;stop-opacity:1"
         offset="0.26238" />
      <stop
         id="stop5434-9-6-8"
         style="stop-color:#4b4b4b;stop-opacity:1"
         offset="0.704952" />
      <stop
         id="stop5436-2-7-0"
         style="stop-color:#3f3f3f;stop-opacity:1"
         offset="1" />
    </linearGradient>
    <linearGradient
       x1="18.379412"
       y1="44.980297"
       x2="18.379412"
       y2="3.0816143"
       id="linearGradient3059"
       xlink:href="#linearGradient2867-449-88-871-390-598-476-591-434-148-57-177-641-289-620-227-114-444-680-744-4-1-5"
       gradientUnits="userSpaceOnUse"
       gradientTransform="matrix(0.5160413,0,0,0.5160413,-31.605288,-1.0968974)" />
  </defs>
  <metadata
     id="metadata3884">
    <rdf:RDF>
      <cc:Work
         rdf:about="">
        <dc:format>image/svg+xml</dc:format>
        <dc:type
           rdf:resource="http://purl.org/dc/dcmitype/StillImage" />
        <dc:title></dc:title>
      </cc:Work>
    </rdf:RDF>
  </metadata>
  <path
     d="M 10.785713,3.5 C 10.337238,3.5 9.97619,3.8610421 9.97619,4.3095168 l 0,1.1130955 C 9.5654905,5.5486301 9.1611856,5.7063365 8.7872024,5.9032853 L 8.0029759,5.1190397 c -0.3171263,-0.3171324 -0.8465698,-0.3171324 -1.1636912,0 L 5.119047,6.8392805 c -0.3171262,0.3171324 -0.3171262,0.8465667 0,1.1636868 L 5.9032736,8.7871884 C 5.7063369,9.1611882 5.5487226,9.565483 5.4226183,9.9761768 l -1.1130952,0 C 3.8610426,9.9761768 3.5,10.33722 3.5,10.785701 l 0,2.42858 c 0,0.448432 0.3610426,0.809517 0.8095231,0.809517 l 1.1130952,0 c 0.1261043,0.410725 0.2837186,0.815014 0.4806553,1.188988 L 5.119047,15.99702 c -0.3171262,0.317132 -0.3171262,0.846561 0,1.163682 l 1.7202377,1.720241 c 0.3171263,0.317132 0.8465698,0.317132 1.1636912,0 l 0.7842265,-0.784234 c 0.3739881,0.197009 0.778293,0.354593 1.1889876,0.480673 l 0,1.113095 c 0,0.448432 0.361049,0.809523 0.809523,0.809523 l 2.428573,0 c 0.44848,0 0.809522,-0.361042 0.809522,-0.809523 l 0,-1.113095 c 0.410701,-0.126019 0.815005,-0.283725 1.188989,-0.480673 l 0.784226,0.784234 c 0.317126,0.317132 0.84657,0.317132 1.163694,0 l 1.720236,-1.720241 c 0.31712,-0.317133 0.31712,-0.846573 0,-1.163682 l -0.78423,-0.784234 c 0.196936,-0.373999 0.354553,-0.7783 0.480661,-1.188988 l 1.113096,0 c 0.448474,0 0.80952,-0.361041 0.80952,-0.809517 l 0,-2.42858 c 0,-0.448431 -0.361042,-0.8095242 -0.80952,-0.8095242 l -1.113096,0 C 18.451276,9.5654718 18.293663,9.1611635 18.096724,8.7871884 l 0.78423,-0.7842211 c 0.317119,-0.3171324 0.317119,-0.8465729 0,-1.1636868 L 17.160717,5.1190397 c -0.317125,-0.3171324 -0.846571,-0.3171324 -1.163694,0 L 15.212797,5.9032669 C 14.838809,5.7063181 14.434505,5.5487345 14.023808,5.4225939 l 0,-1.1130955 c 0,-0.4484317 -0.361042,-0.8095168 -0.809522,-0.8095168 l -2.428573,0 z m 1.214289,6.4761768 c 1.117717,0 2.023806,0.9061002 2.023806,2.0238142 0,1.117714 -0.906089,2.023807 -2.023806,2.023807 -1.117721,0 -2.023812,-0.906093 -2.023812,-2.023807 0,-1.117714 0.906091,-2.0238142 2.023812,-2.0238142 z"
     id="rect3623"
     style="color:#000000;display:block;overflow:visible;visibility:visible;fill:#353945;fill-opacity:1;fill-rule:nonzero;stroke:none;stroke-width:1;stroke-opacity:1;marker:none;enable-background:accumulate"
     inkscape:connector-curvature="0" />
  <path
     d="m 10.556808,3.8977453 c -0.440679,0 -0.7954517,0.3547669 -0.7954517,0.7954468 l 0,1.0937491 C 9.3577951,5.9107687 8.9605173,6.0657341 8.5930342,6.2592598 L 7.8224381,5.4886449 c -0.3116144,-0.3116204 -0.8318558,-0.3116204 -1.1434654,0 L 4.9886339,7.1789867 c -0.3116143,0.3116204 -0.3116143,0.8318528 0,1.1434611 L 5.7592301,9.0930386 C 5.5657163,9.460538 5.4108414,9.8578059 5.2869289,10.261362 l -1.0937488,0 c -0.4406856,0 -0.795453,0.354767 -0.795453,0.795453 l 0,2.38637 c 0,0.440638 0.3547674,0.795447 0.795453,0.795447 l 1.0937488,0 c 0.1239125,0.403586 0.2787874,0.800848 0.4723012,1.168323 l -0.7705962,0.770603 c -0.3116143,0.31162 -0.3116143,0.831847 0,1.143456 l 1.6903388,1.690342 c 0.3116144,0.31162 0.8318558,0.31162 1.1434654,0 l 0.7705961,-0.770603 c 0.3674879,0.193585 0.7647657,0.34843 1.1683221,0.472318 l 0,1.093749 c 0,0.440638 0.3547737,0.795453 0.7954517,0.795453 l 2.386363,0 c 0.440685,0 0.795452,-0.354767 0.795452,-0.795453 l 0,-1.093749 c 0.403562,-0.123828 0.800839,-0.278793 1.168323,-0.472318 l 0.770597,0.770603 c 0.311614,0.31162 0.831856,0.31162 1.143468,0 l 1.690337,-1.690342 c 0.311608,-0.311621 0.311608,-0.831859 0,-1.143456 l -0.770599,-0.770603 c 0.193513,-0.367499 0.348389,-0.764773 0.472306,-1.168323 l 1.093749,0 c 0.44068,0 0.795451,-0.354766 0.795451,-0.795447 l 0,-2.38637 c 0,-0.440637 -0.354768,-0.795453 -0.795451,-0.795453 l -1.093749,0 C 18.089138,9.8577759 17.934262,9.4605137 17.740749,9.0930386 l 0.770599,-0.7705908 c 0.311608,-0.3116204 0.311608,-0.8318588 0,-1.1434611 L 16.821011,5.4886449 c -0.311614,-0.3116204 -0.831858,-0.3116204 -1.143468,0 L 14.906946,6.2592417 C 14.539458,6.065716 14.142182,5.9108713 13.738623,5.7869231 l 0,-1.0937491 c 0,-0.4406376 -0.354767,-0.7954468 -0.795452,-0.7954468 l -2.386363,0 z m 1.211471,5.8607175 c 0.55899,0 1.283454,0.2650712 1.77035,0.7689692 0.469745,0.486149 0.712037,1.201557 0.712037,1.740855 0,0.458761 -0.188228,1.122832 -0.551371,1.559624 -0.506233,0.608903 -1.300631,0.922764 -1.940159,0.922764 -0.534834,0 -1.189665,-0.191068 -1.673885,-0.654673 -0.5101381,-0.488419 -0.8359375,-1.264257 -0.8359375,-1.827715 0,-0.542956 0.2191988,-1.226475 0.7030188,-1.714154 0.4948467,-0.498794 1.2606127,-0.7956702 1.8159467,-0.7956702 z"
     id="rect3623-2"
     style="color:#000000;display:block;overflow:visible;visibility:visible;opacity:1;fill:none;stroke:none;stroke-width:1;stroke-linecap:butt;stroke-linejoin:round;stroke-miterlimit:4;stroke-dasharray:none;stroke-dashoffset:0;stroke-opacity:1;marker:none;enable-background:accumulate"
     inkscape:connector-curvature="0"
     sodipodi:nodetypes="csccscssccssssccssssccssssccssccccsssscccsscccssccsssssssss" />
</svg>
