<?xml version="1.0" encoding="UTF-8" standalone="no"?>
<svg
   xmlns:dc="http://purl.org/dc/elements/1.1/"
   xmlns:cc="http://creativecommons.org/ns#"
   xmlns:rdf="http://www.w3.org/1999/02/22-rdf-syntax-ns#"
   xmlns:svg="http://www.w3.org/2000/svg"
   xmlns="http://www.w3.org/2000/svg"
   xmlns:sodipodi="http://sodipodi.sourceforge.net/DTD/sodipodi-0.dtd"
   xmlns:inkscape="http://www.inkscape.org/namespaces/inkscape"
   height="16.009148"
   id="svg7384"
   version="1.1"
   width="16"
   inkscape:version="0.91 r"
   sodipodi:docname="input-mouse.svg">
  <sodipodi:namedview
     pagecolor="#ffffff"
     bordercolor="#666666"
     borderopacity="1"
     objecttolerance="10"
     gridtolerance="10"
     guidetolerance="10"
     inkscape:pageopacity="0"
     inkscape:pageshadow="2"
     inkscape:window-width="640"
     inkscape:window-height="480"
     id="namedview14682"
     showgrid="false"
     inkscape:zoom="50.158823"
     inkscape:cx="4.261874"
     inkscape:cy="8.0045738"
     inkscape:current-layer="svg7384" />
  <metadata
     id="metadata90">
    <rdf:RDF>
      <cc:Work
         rdf:about="">
        <dc:format>image/svg+xml</dc:format>
        <dc:type
           rdf:resource="http://purl.org/dc/dcmitype/StillImage" />
        <dc:title>elementary Symbolic Icon Theme</dc:title>
      </cc:Work>
    </rdf:RDF>
  </metadata>
  <title
     id="title9167">elementary Symbolic Icon Theme</title>
  <defs
     id="defs7386" />
  <g
     id="layer9"
     style="display:inline;fill:#353945;fill-opacity:1"
     transform="translate(-573.0004,252.00915)" />
  <g
     id="layer10"
     style="display:inline;fill:#353945;fill-opacity:1"
     transform="translate(-573.0004,252.00915)">
    <path
       d="m 577.67951,-248.00657 c -0.93151,-0.003 -1.68515,0.76529 -1.68971,1.72648 0.018,0.74437 0.0221,1.50686 0.015,2.26896 l 2.92137,0.0153 0.0189,-4.00381 -1.26571,-0.006 z m 2.40728,0.0117 -0.0189,4.00384 2.9215,0.0153 c 0.015,-0.7651 0.03,-1.53284 0.0366,-2.26867 0.003,-0.96119 -0.74166,-1.7388 -1.67322,-1.74352 l -1.26604,-0.006 z m -4.08639,5.08092 c -0.0113,0.83161 -0.037,1.50046 -0.0375,2.26595 -0.009,2.01107 1.55182,3.63807 3.50087,3.64796 1.94903,0.01 3.52584,-1.6012 3.53542,-3.6123 -0.0353,-0.83655 -0.046,-1.50842 -0.0375,-2.30161 z"
       id="rect7357"
       style="fill:#353945;fill-opacity:1;stroke:none" />
    <path
       d="m 581.0629,-252 c -0.4543,0.0495 -0.88397,0.2214 -1.25,0.5 -0.48804,0.37146 -0.8125,0.95486 -0.8125,1.6875 -0.004,0.26416 0.23582,0.50712 0.5,0.50712 0.26418,0 0.50374,-0.24296 0.5,-0.50712 0,-0.4491 0.17164,-0.70389 0.4375,-0.90625 0.26586,-0.20236 0.66376,-0.30023 1.0625,-0.28125 0.39874,0.019 0.78428,0.15409 1.0625,0.40625 0.27822,0.25216 0.46875,0.5845 0.46875,1.125 0,2.1653 1.46382,3.50909 3,3.46875 0.85672,-0.0225 1.68825,-0.47696 2.25,-1.3125 l -0.5625,-1 c -0.37537,0.9157 -1.06785,1.29541 -1.71875,1.3125 -0.96046,0.0252 -1.96875,-0.72975 -1.96875,-2.46875 0,-0.79197 -0.33682,-1.44388 -0.8125,-1.875 -0.47568,-0.43112 -1.08104,-0.62738 -1.6875,-0.65625 -0.15162,-0.007 -0.31732,-0.0165 -0.46875,0 z m 6.9375,1.9687 c -3.3e-4,0.0104 -3.3e-4,0.0208 0,0.0312 0,0.0455 8.9e-4,0.0807 0,0.125 l 0.78125,1.375 c 0.0114,-0.0408 0.0208,-0.0833 0.0312,-0.125 z m 0,0.375 c -0.006,0.10599 -0.0201,0.21386 -0.0312,0.3125 l 0.71875,1.21875 c 0.0234,-0.0625 0.0415,-0.12233 0.0625,-0.1875 z m -0.0625,0.5 c -0.0138,0.0899 -0.0444,0.16659 -0.0625,0.25 l 0.65625,1.125 c 0.0293,-0.0609 0.0669,-0.12359 0.0937,-0.1875 z m -0.0937,0.4375 c -0.0237,0.0889 -0.0653,0.16899 -0.0937,0.25 l 0.59375,1.03125 c 0.0401,-0.0651 0.088,-0.1182 0.125,-0.1875 z"
       id="path7413"
       style="font-size:medium;font-style:normal;font-variant:normal;font-weight:normal;font-stretch:normal;text-indent:0;text-align:start;text-decoration:none;line-height:normal;letter-spacing:normal;word-spacing:normal;text-transform:none;direction:ltr;block-progression:tb;writing-mode:lr-tb;text-anchor:start;baseline-shift:baseline;color:#000000;fill:#353945;fill-opacity:1;stroke:none;stroke-width:1;marker:none;visibility:visible;display:inline;overflow:visible;enable-background:accumulate;font-family:Sans;-inkscape-font-specification:Sans" />
  </g>
  <g
     id="layer11"
     transform="translate(-573.0004,252.00915)"
     style="fill:#353945;fill-opacity:1" />
  <g
     id="layer13"
     style="display:inline;fill:#353945;fill-opacity:1"
     transform="translate(-573.0004,252.00915)" />
  <g
     id="layer14"
     transform="translate(-573.0004,252.00915)"
     style="fill:#353945;fill-opacity:1" />
  <g
     id="layer15"
     style="display:inline;fill:#353945;fill-opacity:1"
     transform="translate(-573.0004,252.00915)" />
  <g
     id="g71291"
     style="display:inline;fill:#353945;fill-opacity:1"
     transform="translate(-573.0004,252.00915)" />
  <g
     id="g4953"
     style="display:inline;fill:#353945;fill-opacity:1"
     transform="translate(-573.0004,252.00915)" />
  <g
     id="layer12"
     style="display:inline;fill:#353945;fill-opacity:1"
     transform="translate(-573.0004,252.00915)" />
</svg>
