<?xml version="1.0" encoding="UTF-8" standalone="no"?>
<svg
   xmlns:dc="http://purl.org/dc/elements/1.1/"
   xmlns:cc="http://creativecommons.org/ns#"
   xmlns:rdf="http://www.w3.org/1999/02/22-rdf-syntax-ns#"
   xmlns:svg="http://www.w3.org/2000/svg"
   xmlns="http://www.w3.org/2000/svg"
   xmlns:xlink="http://www.w3.org/1999/xlink"
   xmlns:sodipodi="http://sodipodi.sourceforge.net/DTD/sodipodi-0.dtd"
   xmlns:inkscape="http://www.inkscape.org/namespaces/inkscape"
   version="1.1"
   width="48"
   height="48"
   id="svg4061"
   inkscape:version="0.91 r"
   sodipodi:docname="3.svg">
  <sodipodi:namedview
     pagecolor="#ffffff"
     bordercolor="#666666"
     borderopacity="1"
     objecttolerance="10"
     gridtolerance="10"
     guidetolerance="10"
     inkscape:pageopacity="0"
     inkscape:pageshadow="2"
     inkscape:window-width="640"
     inkscape:window-height="480"
     id="namedview35"
     showgrid="false"
     inkscape:zoom="17.640622"
     inkscape:cx="26.619405"
     inkscape:cy="22.999943"
     inkscape:current-layer="g4550" />
  <defs
     id="defs4063">
    <linearGradient
       x1="71.204407"
       y1="15.369057"
       x2="71.204407"
       y2="40.495617"
       id="linearGradient3177"
       xlink:href="#linearGradient4806-2"
       gradientUnits="userSpaceOnUse"
       gradientTransform="matrix(1.6169806,0,0,1.6169806,-92.707374,-21.060237)" />
    <linearGradient
       id="linearGradient4806-2">
      <stop
         id="stop4808-4"
         style="stop-color:#ffffff;stop-opacity:1"
         offset="0" />
      <stop
         id="stop4810-0"
         style="stop-color:#ffffff;stop-opacity:0.23529412"
         offset="0.42447853" />
      <stop
         id="stop4812-8"
         style="stop-color:#ffffff;stop-opacity:0.15686275"
         offset="0.82089913" />
      <stop
         id="stop4814-0"
         style="stop-color:#ffffff;stop-opacity:0.39215687"
         offset="1" />
    </linearGradient>
    <radialGradient
       cx="15.026252"
       cy="8.6257601"
       r="19.99999"
       fx="4.4589653"
       fy="8.5088921"
       id="radialGradient4013"
       xlink:href="#linearGradient3846"
       gradientUnits="userSpaceOnUse"
       gradientTransform="matrix(-3.4973212e-8,1.8854921,-1.7764068,-5.4722636e-8,39.140041,-7.993163)" />
    <linearGradient
       id="linearGradient3846">
      <stop
         id="stop3848"
         style="stop-color:#fff3cb;stop-opacity:1"
         offset="0" />
      <stop
         id="stop3850"
         style="stop-color:#fdde76;stop-opacity:1"
         offset="0.26238" />
      <stop
         id="stop3852"
         style="stop-color:#f9c440;stop-opacity:1"
         offset="0.66093999" />
      <stop
         id="stop3854"
         style="stop-color:#e48b20;stop-opacity:1"
         offset="1" />
    </linearGradient>
    <radialGradient
       cx="23.896"
       cy="3.99"
       r="20.396999"
       fx="23.896"
       fy="3.99"
       id="radialGradient4201"
       xlink:href="#radialGradient3093-0-3-6-6"
       gradientUnits="userSpaceOnUse"
       gradientTransform="matrix(0,2.8885219,-3.8127977,0,39.21344,-65.949504)" />
    <radialGradient
       cx="23.896"
       cy="3.99"
       r="20.396999"
       id="radialGradient3093-0-3-6-6"
       gradientUnits="userSpaceOnUse"
       gradientTransform="matrix(0,1.2316483,-1.625754,0,18.486966,-28.721977)">
      <stop
         id="stop3244-9-33-7-0-9"
         style="stop-color:#ffffff;stop-opacity:1"
         offset="0" />
      <stop
         id="stop3246-3-5-0-8-5"
         style="stop-color:#dddddd;stop-opacity:1"
         offset="0.26238" />
      <stop
         id="stop3248-1-7-8-8-1"
         style="stop-color:#abacae;stop-opacity:1"
         offset="0.66093999" />
      <stop
         id="stop3250-9-3-0-5-1"
         style="stop-color:#89898b;stop-opacity:1"
         offset="1" />
    </radialGradient>
    <linearGradient
       id="linearGradient3820-7-2-1">
      <stop
         id="stop3822-2-6-3"
         style="stop-color:#3d3d3d;stop-opacity:1"
         offset="0" />
      <stop
         id="stop3864-8-7-7"
         style="stop-color:#686868;stop-opacity:0.49803922"
         offset="0.5" />
      <stop
         id="stop3824-1-2-5"
         style="stop-color:#686868;stop-opacity:0"
         offset="1" />
    </linearGradient>
    <radialGradient
       cx="99.157013"
       cy="186.17059"
       r="62.769119"
       fx="99.157013"
       fy="186.17059"
       id="radialGradient4059"
       xlink:href="#linearGradient3820-7-2-1"
       gradientUnits="userSpaceOnUse"
       gradientTransform="matrix(0.27083381,0,0,0.08762273,-2.85507,25.187228)" />
    <linearGradient
       x1="78"
       y1="909.36218"
       x2="82.5"
       y2="909.36218"
       id="linearGradient4438-2"
       xlink:href="#linearGradient4432-9"
       gradientUnits="userSpaceOnUse"
       gradientTransform="matrix(2.75,0,0,2.75,-190.69967,-2470.427)"
       spreadMethod="reflect" />
    <linearGradient
       id="linearGradient4432-9">
      <stop
         id="stop4434-5"
         style="stop-color:#fffefe;stop-opacity:1"
         offset="0" />
      <stop
         id="stop4440-5"
         style="stop-color:#ffffff;stop-opacity:1"
         offset="0.66393441" />
      <stop
         id="stop4436-8"
         style="stop-color:#929292;stop-opacity:1"
         offset="1" />
    </linearGradient>
    <radialGradient
       cx="184.38538"
       cy="835.83032"
       r="1.8253632"
       fx="184.38538"
       fy="835.83032"
       id="radialGradient5076"
       xlink:href="#linearGradient5068"
       gradientUnits="userSpaceOnUse"
       gradientTransform="matrix(1.8675044,1.7282205,-2.3023326,2.4878864,1615.5126,-2394.2692)" />
    <linearGradient
       id="linearGradient5068">
      <stop
         id="stop5070"
         style="stop-color:#e40f0d;stop-opacity:1"
         offset="0" />
      <stop
         id="stop5072"
         style="stop-color:#940a09;stop-opacity:1"
         offset="1" />
    </linearGradient>
    <radialGradient
       cx="3"
       cy="10.5"
       r="2.5"
       fx="3"
       fy="10.5"
       id="radialGradient3822"
       xlink:href="#linearGradient3816"
       gradientUnits="userSpaceOnUse"
       gradientTransform="matrix(2.3025237,2.3025238,-1.8420188,1.8420188,23.804614,3.2056628)" />
    <linearGradient
       id="linearGradient3816">
      <stop
         id="stop3818"
         style="stop-color:#ff7a26;stop-opacity:1"
         offset="0" />
      <stop
         id="stop3820"
         style="stop-color:#ff8056;stop-opacity:0"
         offset="1" />
    </linearGradient>
    <radialGradient
       cx="3"
       cy="10.5"
       r="2.5"
       fx="3"
       fy="10.5"
       id="radialGradient3856"
       xlink:href="#linearGradient3816"
       gradientUnits="userSpaceOnUse"
       gradientTransform="matrix(-2.3025237,2.3025238,1.8420188,1.8420188,24.647457,3.2056628)" />
    <linearGradient
       id="linearGradient4854">
      <stop
         offset="0"
         style="stop-color:#181818;stop-opacity:0"
         id="stop4856" />
      <stop
         offset="0.72347319"
         style="stop-color:#181818;stop-opacity:0"
         id="stop4858" />
      <stop
         offset="1"
         style="stop-color:#181818;stop-opacity:1"
         id="stop4860" />
    </linearGradient>
    <linearGradient
       id="linearGradient12739">
      <stop
         id="stop12741"
         style="stop-color:#ffffff;stop-opacity:1"
         offset="0" />
      <stop
         id="stop12743"
         style="stop-color:#ffffff;stop-opacity:0"
         offset="1" />
    </linearGradient>
    <filter
       style="color-interpolation-filters:sRGB"
       x="-0.12342857"
       y="-0.1728"
       width="1.246857"
       height="1.3456"
       id="filter5230">
      <feGaussianBlur
         id="feGaussianBlur5232"
         stdDeviation="0.72" />
    </filter>
    <linearGradient
       id="linearGradient4632-92-3-0-8-1-1">
      <stop
         id="stop4634-68-8-0-2-9-1"
         style="stop-color:#fafafa;stop-opacity:1"
         offset="0" />
      <stop
         id="stop4636-8-21-7-1-4-2"
         style="stop-color:#e1e1e1;stop-opacity:1"
         offset="1" />
    </linearGradient>
    <linearGradient
       id="linearGradient4011-4">
      <stop
         id="stop4013-8"
         style="stop-color:#ffffff;stop-opacity:1"
         offset="0" />
      <stop
         id="stop4015-5"
         style="stop-color:#ffffff;stop-opacity:0.23529412"
         offset="0.507761" />
      <stop
         id="stop4017-6"
         style="stop-color:#ffffff;stop-opacity:0.15686275"
         offset="0.83456558" />
      <stop
         id="stop4019-1"
         style="stop-color:#ffffff;stop-opacity:0.39215687"
         offset="1" />
    </linearGradient>
    <linearGradient
       id="linearGradient4220-7-3">
      <stop
         id="stop4222-7-9"
         style="stop-color:#7a8498;stop-opacity:1"
         offset="0" />
      <stop
         id="stop4224-0-2"
         style="stop-color:#34405c;stop-opacity:1"
         offset="1" />
    </linearGradient>
    <linearGradient
       x1="318.42047"
       y1="906.38409"
       x2="318.42047"
       y2="912.35657"
       id="linearGradient3042"
       xlink:href="#linearGradient11238-5-4"
       gradientUnits="userSpaceOnUse"
       gradientTransform="matrix(3.4375,0,0,1.9479165,-1066.7601,-1739.5296)" />
    <linearGradient
       id="linearGradient11238-5-4">
      <stop
         id="stop11240-9-6"
         style="stop-color:#60170a;stop-opacity:1"
         offset="0" />
      <stop
         id="stop11242-4-1"
         style="stop-color:#29140a;stop-opacity:1"
         offset="1" />
    </linearGradient>
    <linearGradient
       x1="8.0202217"
       y1="10.614286"
       x2="13.242857"
       y2="10.614286"
       id="linearGradient3830"
       xlink:href="#linearGradient4189"
       gradientUnits="userSpaceOnUse"
       gradientTransform="matrix(2.75,0,0,2.75,-2.5574641,-0.47138448)"
       spreadMethod="reflect" />
    <linearGradient
       id="linearGradient4189">
      <stop
         id="stop4191"
         style="stop-color:#ffffff;stop-opacity:1"
         offset="0" />
      <stop
         id="stop4197"
         style="stop-color:#ffffff;stop-opacity:1"
         offset="0.5" />
      <stop
         id="stop4193"
         style="stop-color:#ffffff;stop-opacity:0"
         offset="1" />
    </linearGradient>
    <linearGradient
       x1="316"
       y1="911.36218"
       x2="316"
       y2="909.36218"
       id="linearGradient3067"
       xlink:href="#linearGradient4254-0"
       gradientUnits="userSpaceOnUse"
       gradientTransform="matrix(4.1250687,0,0,2.75,-1284.0317,-2468.5703)" />
    <linearGradient
       id="linearGradient4254-0">
      <stop
         id="stop4256-1"
         style="stop-color:#e84b00;stop-opacity:1"
         offset="0" />
      <stop
         id="stop4258-1"
         style="stop-color:#e44a00;stop-opacity:0.79881656"
         offset="1" />
    </linearGradient>
    <filter
       style="color-interpolation-filters:sRGB"
       x="-0.12342857"
       y="-0.1728"
       width="1.246857"
       height="1.3456"
       id="filter5230-9">
      <feGaussianBlur
         id="feGaussianBlur5232-2"
         stdDeviation="0.72" />
    </filter>
    <linearGradient
       inkscape:collect="always"
       xlink:href="#linearGradient4011-4"
       id="linearGradient3902"
       gradientUnits="userSpaceOnUse"
       gradientTransform="matrix(0.48648644,0,0,0.48648644,-20.995821,1.3724541)"
       x1="71.204407"
       y1="6.2375584"
       x2="71.204407"
       y2="44.340794" />
    <linearGradient
       inkscape:collect="always"
       xlink:href="#linearGradient4220-7-3"
       id="linearGradient3467-0"
       gradientUnits="userSpaceOnUse"
       gradientTransform="matrix(0.61636023,0,0,0.61636023,-42.936278,-6.3653352)"
       x1="91.566116"
       y1="16.542858"
       x2="91.566116"
       y2="48.631081" />
    <linearGradient
       inkscape:collect="always"
       xlink:href="#linearGradient4220-7-3"
       id="linearGradient4678"
       gradientUnits="userSpaceOnUse"
       gradientTransform="matrix(0.61636023,0,0,0.61636023,-22.868958,-6.3086479)"
       x1="91.566116"
       y1="16.542858"
       x2="91.566116"
       y2="48.631081" />
    <linearGradient
       inkscape:collect="always"
       xlink:href="#linearGradient4011-4"
       id="linearGradient4680"
       gradientUnits="userSpaceOnUse"
       gradientTransform="matrix(0.48648644,0,0,0.48648644,-0.92850134,1.4291414)"
       x1="71.204407"
       y1="6.2375584"
       x2="71.204407"
       y2="44.340794" />
  </defs>
  <metadata
     id="metadata4066">
    <rdf:RDF>
      <cc:Work
         rdf:about="">
        <dc:format>image/svg+xml</dc:format>
        <dc:type
           rdf:resource="http://purl.org/dc/dcmitype/StillImage" />
        <dc:title></dc:title>
      </cc:Work>
    </rdf:RDF>
  </metadata>
  <g
     id="layer1">
    <path
       d="m 41,41.5 a 17,5.4999999 0 0 1 -34,0 17,5.4999999 0 1 1 34,0 z"
       id="path3818-0-5"
       style="fill:url(#radialGradient4059);fill-opacity:1;stroke:none" />
    <path
       d="M 24,3.5000009 C 12.68881,3.5000009 3.5,12.688807 3.5,24 3.5,35.311193 12.68881,44.500003 24,44.5 35.31119,44.5 44.50001,35.311193 44.5,24 44.5,12.688807 35.31119,3.5000009 24,3.5000009 z"
       id="path2555-7-2"
       style="color:#000000;fill:url(#radialGradient4201);fill-opacity:1;fill-rule:nonzero;stroke:none;stroke-width:0.99999994;marker:none;visibility:visible;display:inline;overflow:visible;enable-background:accumulate" />
    <path
       d="M 24,3.5000003 C 12.688809,3.5000003 3.5000005,12.688809 3.5000005,24 3.5000005,35.311193 12.688809,44.500004 24,44.500001 35.311191,44.500001 44.500008,35.311193 44.500001,24 44.500001,12.688809 35.311191,3.5000004 24,3.5000004 z"
       id="path2555-7-65"
       style="color:#000000;fill:url(#radialGradient4013);fill-opacity:1;fill-rule:nonzero;stroke:none;stroke-width:1;marker:none;visibility:visible;display:inline;overflow:visible;enable-background:accumulate" />
    <path
       d="M 43.5,24.000001 C 43.5,34.76955 34.76954,43.5 23.99999,43.5 13.23045,43.5 4.5,34.76955 4.5,24.000001 4.5,13.23045 13.23045,4.5000019 23.99999,4.5000019 34.76954,4.5000019 43.5,13.23045 43.5,24.000001 z"
       id="path4176"
       style="opacity:0.8;color:#000000;fill:none;stroke:url(#linearGradient3177);stroke-width:1;stroke-linecap:round;stroke-linejoin:round;stroke-miterlimit:4;stroke-opacity:1;stroke-dasharray:none;stroke-dashoffset:0;marker:none;visibility:visible;display:inline;overflow:visible;enable-background:accumulate" />
    <path
       d="m 24,3.500115 c -11.31113,0 -20.499885,9.188754 -20.499885,20.499884 0,11.311131 9.188755,20.499891 20.499885,20.499887 11.31113,0 20.4999,-9.188756 20.499886,-20.499887 C 44.499886,12.688869 35.31113,3.5001149 24,3.5001149 z"
       id="path2555-7-1-7"
       style="opacity:0.5;color:#000000;fill:none;stroke:#985800;stroke-width:0.99999988;stroke-linecap:round;stroke-linejoin:round;stroke-miterlimit:4;stroke-opacity:1;stroke-dasharray:none;stroke-dashoffset:0;marker:none;visibility:visible;display:inline;overflow:visible;enable-background:accumulate" />
    <g
       id="g4550"
       transform="translate(4.5124794,-0.41772)">
      <path
         inkscape:connector-curvature="0"
         style="color:#000000;display:inline;overflow:visible;visibility:visible;fill:#43340d;fill-opacity:1;stroke:none;stroke-width:1;marker:none;enable-background:accumulate"
         id="path3964-7-71-6"
         d="m 12.027676,14.437513 a 2.0625021,5.5000057 0 0 1 -4.1250044,0 2.0625021,5.5000057 0 1 1 4.1250044,0 z" />
      <path
         inkscape:connector-curvature="0"
         style="color:#000000;display:inline;overflow:visible;visibility:visible;fill:url(#linearGradient3042);fill-opacity:1;fill-rule:nonzero;stroke:none;stroke-width:1.35736394;marker:none;enable-background:accumulate"
         id="path3348"
         d="m 5.8255575,25.98822 c -0.0275,0.280091 -0.085525,0.549196 -0.085525,0.834818 0,5.993779 6.1560945,10.852682 13.7499995,10.852682 7.593905,0 13.75,-4.858903 13.75,-10.852682 0,-0.285614 -0.05885,-0.554727 -0.08553,-0.834818 0,0 -3.827879,1.329541 -13.664558,1.16875 C 9.6532715,26.996179 5.8263825,25.98822 5.8263825,25.98822 Z" />
      <path
         inkscape:connector-curvature="0"
         style="fill:none;stroke:url(#linearGradient3830);stroke-width:2.75px;stroke-linecap:butt;stroke-linejoin:miter;stroke-opacity:1"
         id="path3814"
         d="m 6.3211072,28.128616 c 0,0 2.5011905,1.178571 13.1214288,1.178571 10.620239,0 13.042857,-1.178571 13.042857,-1.178571" />
      <path
         inkscape:connector-curvature="0"
         style="color:#000000;display:inline;overflow:visible;visibility:visible;opacity:0.6;fill:url(#linearGradient3067);fill-opacity:1;fill-rule:nonzero;stroke:none;stroke-width:1.35736394;marker:none;enable-background:accumulate"
         id="path3348-1"
         d="m 11.291265,32.17572 c -0.0165,0.131725 -0.05143,0.2585 -0.05143,0.392865 0,2.820593 3.693717,5.107135 8.250137,5.107135 4.55642,0 8.250137,-2.286542 8.250137,-5.107135 0,-0.134475 -0.03712,-0.260975 -0.0517,-0.392865 l -16.397149,0 z" />
      <path
         d="m 30.904561,14.664262 a 2.0625022,5.500006 0 0 1 -4.125004,0 2.0625022,5.500006 0 1 1 4.125004,0 z"
         id="path4682"
         style="color:#000000;display:inline;overflow:visible;visibility:visible;fill:#43340d;fill-opacity:1;stroke:none;stroke-width:1;marker:none;enable-background:accumulate"
         inkscape:connector-curvature="0" />
    </g>
    <path
       style="color:#000000;display:inline;overflow:visible;visibility:visible;fill:url(#linearGradient3467-0);fill-opacity:1;fill-rule:nonzero;stroke:none;stroke-width:0.79069769;marker:none;enable-background:accumulate"
       d="m 13.821934,4.0407729 c -5.3337319,0 -9.6660149,4.3342359 -9.6660149,9.6679691 0,5.333734 4.332283,9.666016 9.6660149,9.666015 5.333731,0 9.666021,-4.332281 9.666016,-9.666015 0,-5.3337332 -4.332285,-9.6679691 -9.666016,-9.6679691 z m 0,2 c 4.230201,0 7.666016,3.4377669 7.666016,7.6679691 4e-6,4.230202 -3.435815,7.666015 -7.666016,7.666015 -4.2302022,0 -7.6660149,-3.435813 -7.6660149,-7.666015 0,-4.2302022 3.4358127,-7.6679691 7.6660149,-7.6679691 z"
       id="path2555"
       inkscape:connector-curvature="0" />
    <path
       inkscape:connector-curvature="0"
       d="m 13.901562,3.9618732 c -5.3337319,0 -9.6666669,4.3329336 -9.6666669,9.6666668 0,5.333733 4.332935,9.666668 9.6666669,9.666667 5.333731,0 9.666671,-4.332934 9.666665,-9.666667 0,-5.3337332 -4.332934,-9.6666668 -9.666665,-9.6666668 z"
       id="path2555-6"
       style="color:#000000;display:inline;overflow:visible;visibility:visible;opacity:0.5;fill:none;fill-opacity:0;fill-rule:nonzero;stroke:#32434b;stroke-width:0.66666663;stroke-linecap:round;stroke-linejoin:round;stroke-miterlimit:4;stroke-dasharray:none;stroke-dashoffset:0;stroke-opacity:1;marker:none;enable-background:accumulate" />
    <path
       inkscape:connector-curvature="0"
       d="m 22.901561,13.708089 c 0,4.970722 -4.029734,9.000317 -8.999886,9.000317 -4.9706069,0 -9.0001129,-4.029641 -9.0001129,-9.000317 0,-4.9704932 4.029506,-8.9996809 9.0001129,-8.9996809 4.970152,0 8.999886,4.0291877 8.999886,8.9996809 l 0,0 z"
       id="path8655"
       style="color:#000000;display:inline;overflow:visible;visibility:visible;opacity:0.3;fill:none;stroke:url(#linearGradient3902);stroke-width:0.66666663;stroke-linecap:round;stroke-linejoin:round;stroke-miterlimit:4;stroke-dasharray:none;stroke-dashoffset:0;stroke-opacity:1;marker:none;enable-background:accumulate" />
    <path
       inkscape:connector-curvature="0"
       d="m 13.901562,6.0417404 c -4.2302012,0 -7.6666669,3.4364644 -7.6666669,7.6666666 0,4.230202 3.4364657,7.666668 7.6666669,7.666667 4.2302,0 7.66667,-3.436465 7.666665,-7.666667 0,-4.2302022 -3.436465,-7.6666666 -7.666665,-7.6666666 z"
       id="path2555-6-0"
       style="color:#000000;display:inline;overflow:visible;visibility:visible;opacity:0.5;fill:none;stroke:#32434b;stroke-width:0.66666663;stroke-linecap:round;stroke-linejoin:round;stroke-miterlimit:4;stroke-dasharray:none;stroke-dashoffset:0;stroke-opacity:1;marker:none;enable-background:accumulate" />
    <path
       inkscape:connector-curvature="0"
       id="path4670"
       d="m 33.889254,4.0974602 c -5.333732,0 -9.666015,4.3342359 -9.666015,9.6679688 0,5.333734 4.332283,9.666016 9.666015,9.666015 5.333731,0 9.666021,-4.332281 9.666016,-9.666015 0,-5.3337329 -4.332285,-9.6679688 -9.666016,-9.6679688 z m 0,2 c 4.230201,0 7.666016,3.4377669 7.666016,7.6679688 4e-6,4.230202 -3.435815,7.666015 -7.666016,7.666015 -4.230203,0 -7.666015,-3.435813 -7.666015,-7.666015 0,-4.2302019 3.435812,-7.6679688 7.666015,-7.6679688 z"
       style="color:#000000;display:inline;overflow:visible;visibility:visible;fill:url(#linearGradient4678);fill-opacity:1;fill-rule:nonzero;stroke:none;stroke-width:0.79069769;marker:none;enable-background:accumulate" />
    <path
       style="color:#000000;display:inline;overflow:visible;visibility:visible;opacity:0.5;fill:none;fill-opacity:0;fill-rule:nonzero;stroke:#32434b;stroke-width:0.66666663;stroke-linecap:round;stroke-linejoin:round;stroke-miterlimit:4;stroke-dasharray:none;stroke-dashoffset:0;stroke-opacity:1;marker:none;enable-background:accumulate"
       id="path4672"
       d="m 33.968882,4.0185605 c -5.333732,0 -9.666667,4.3329336 -9.666667,9.6666665 0,5.333733 4.332935,9.666668 9.666667,9.666667 5.333731,0 9.666671,-4.332934 9.666665,-9.666667 0,-5.3337329 -4.332934,-9.6666665 -9.666665,-9.6666665 z"
       inkscape:connector-curvature="0" />
    <path
       style="color:#000000;display:inline;overflow:visible;visibility:visible;opacity:0.3;fill:none;stroke:url(#linearGradient4680);stroke-width:0.66666663;stroke-linecap:round;stroke-linejoin:round;stroke-miterlimit:4;stroke-dasharray:none;stroke-dashoffset:0;stroke-opacity:1;marker:none;enable-background:accumulate"
       id="path4674"
       d="m 42.968881,13.764776 c 0,4.970722 -4.029734,9.000317 -8.999886,9.000317 -4.970607,0 -9.000113,-4.029641 -9.000113,-9.000317 0,-4.9704929 4.029506,-8.9996806 9.000113,-8.9996806 4.970152,0 8.999886,4.0291877 8.999886,8.9996806 l 0,0 z"
       inkscape:connector-curvature="0" />
    <path
       style="color:#000000;display:inline;overflow:visible;visibility:visible;opacity:0.5;fill:none;stroke:#32434b;stroke-width:0.66666663;stroke-linecap:round;stroke-linejoin:round;stroke-miterlimit:4;stroke-dasharray:none;stroke-dashoffset:0;stroke-opacity:1;marker:none;enable-background:accumulate"
       id="path4676"
       d="m 33.968882,6.0984277 c -4.230202,0 -7.666667,3.4364644 -7.666667,7.6666663 0,4.230202 3.436465,7.666668 7.666667,7.666667 4.2302,0 7.66667,-3.436465 7.666665,-7.666667 0,-4.2302019 -3.436465,-7.6666663 -7.666665,-7.6666663 z"
       inkscape:connector-curvature="0" />
  </g>
</svg>
