<?xml version="1.0" encoding="UTF-8" standalone="no"?>
<svg
   xmlns:dc="http://purl.org/dc/elements/1.1/"
   xmlns:cc="http://creativecommons.org/ns#"
   xmlns:rdf="http://www.w3.org/1999/02/22-rdf-syntax-ns#"
   xmlns:svg="http://www.w3.org/2000/svg"
   xmlns="http://www.w3.org/2000/svg"
   xmlns:xlink="http://www.w3.org/1999/xlink"
   xmlns:sodipodi="http://sodipodi.sourceforge.net/DTD/sodipodi-0.dtd"
   xmlns:inkscape="http://www.inkscape.org/namespaces/inkscape"
   version="1.1"
   width="16"
   height="16"
   id="svg11505"
   inkscape:version="0.91 r"
   sodipodi:docname="align-horizontal-left.svg">
  <sodipodi:namedview
     pagecolor="#ffffff"
     bordercolor="#666666"
     borderopacity="1"
     objecttolerance="10"
     gridtolerance="10"
     guidetolerance="10"
     inkscape:pageopacity="0"
     inkscape:pageshadow="2"
     inkscape:window-width="640"
     inkscape:window-height="480"
     id="namedview32"
     showgrid="false"
     inkscape:zoom="57.309859"
     inkscape:cx="4.7283116"
     inkscape:cy="8"
     inkscape:current-layer="g4268" />
  <defs
     id="defs11507">
    <linearGradient
       id="linearGradient3455">
      <stop
         id="stop3457"
         style="stop-color:#ce5c00;stop-opacity:1"
         offset="0" />
      <stop
         id="stop3459"
         style="stop-color:#ce5c00;stop-opacity:0"
         offset="1" />
    </linearGradient>
    <linearGradient
       x1="-202.13651"
       y1="-470.39944"
       x2="-203.22115"
       y2="-470.39944"
       id="linearGradient6726"
       xlink:href="#linearGradient3455"
       gradientUnits="userSpaceOnUse"
       gradientTransform="translate(269.9999,1022)" />
    <linearGradient
       id="linearGradient3447">
      <stop
         id="stop3449"
         style="stop-color:#fcaf3e;stop-opacity:1"
         offset="0" />
      <stop
         id="stop3451"
         style="stop-color:#fcaf3e;stop-opacity:0"
         offset="1" />
    </linearGradient>
    <linearGradient
       x1="-202.18069"
       y1="-471.46011"
       x2="-202.8448"
       y2="-471.46011"
       id="linearGradient6724"
       xlink:href="#linearGradient3447"
       gradientUnits="userSpaceOnUse"
       gradientTransform="translate(269.9999,1022)" />
    <linearGradient
       id="linearGradient3431">
      <stop
         id="stop3433"
         style="stop-color:#ce5c00;stop-opacity:1"
         offset="0" />
      <stop
         id="stop3435"
         style="stop-color:#ce5c00;stop-opacity:0"
         offset="1" />
    </linearGradient>
    <linearGradient
       x1="-187.6853"
       y1="-470.57623"
       x2="-186.86707"
       y2="-470.57623"
       id="linearGradient6722"
       xlink:href="#linearGradient3431"
       gradientUnits="userSpaceOnUse"
       gradientTransform="translate(269.9999,1022)" />
    <linearGradient
       id="linearGradient3439">
      <stop
         id="stop3441"
         style="stop-color:#fcaf3e;stop-opacity:1"
         offset="0" />
      <stop
         id="stop3443"
         style="stop-color:#fcaf3e;stop-opacity:0"
         offset="1" />
    </linearGradient>
    <linearGradient
       x1="-187.66292"
       y1="-471.41592"
       x2="-187.13074"
       y2="-471.41592"
       id="linearGradient6720"
       xlink:href="#linearGradient3439"
       gradientUnits="userSpaceOnUse"
       gradientTransform="translate(269.9999,1022)" />
  </defs>
  <metadata
     id="metadata11510">
    <rdf:RDF>
      <cc:Work
         rdf:about="">
        <dc:format>image/svg+xml</dc:format>
        <dc:type
           rdf:resource="http://purl.org/dc/dcmitype/StillImage" />
      </cc:Work>
    </rdf:RDF>
  </metadata>
  <g
     id="layer1">
    <g
       transform="matrix(0,-1,1,0,3.6454201e-4,16)"
       id="g4268"
       style="display:inline">
      <g
         transform="matrix(-1,0,0,1,201.9999,-468)"
         id="g4133"
         style="fill:#d3d7cf;stroke:#888a85;display:inline">
        <rect
           width="8.9995146"
           height="7"
           x="470.50024"
           y="-195.49989"
           transform="matrix(0,1,-1,0,0,0)"
           id="rect4135"
           style="fill:#f3f3f3;fill-opacity:1;stroke:#353945;stroke-width:0.99999952;stroke-linecap:butt;stroke-linejoin:round;stroke-miterlimit:3;stroke-opacity:1;stroke-dasharray:none;stroke-dashoffset:0" />
      </g>
      <g
         transform="matrix(-1,0,0,1,202.9999,-468)"
         id="g4139"
         style="display:inline;stroke:#353945;stroke-opacity:1;fill:#f3f3f3;fill-opacity:1">
        <rect
           width="11.999694"
           height="7.0035982"
           x="470.49982"
           y="-201.50363"
           transform="matrix(0,1,-1,0,0,0)"
           id="rect4141"
           style="color:#000000;fill:#f3f3f3;fill-opacity:1;fill-rule:evenodd;stroke:#353945;stroke-width:1.00024939;stroke-linecap:butt;stroke-linejoin:round;stroke-miterlimit:0;stroke-opacity:1;stroke-dasharray:none;stroke-dashoffset:0;marker:none;display:inline" />
      </g>
      <g
         transform="matrix(0.88888889,0,0,1,-58.222222,-548)"
         id="g4193"
         style="display:inline;fill:#ff7600;fill-opacity:1;stroke:none;stroke-opacity:1">
        <path
           d="m 74.5,549.5 9,0 0,2 -9,0"
           id="path4195"
           style="fill:#ff7600;fill-opacity:1;stroke:none;stroke-width:0.99999976;stroke-linecap:butt;stroke-linejoin:round;stroke-miterlimit:0;stroke-dashoffset:0;stroke-opacity:1"
           inkscape:connector-curvature="0" />
        <path
           d="m 75.5,551.5 -10,0 0,-2 10,0"
           id="path4197"
           style="fill:#ff7600;fill-opacity:1;stroke:none;stroke-width:0.99999976;stroke-linecap:butt;stroke-linejoin:round;stroke-miterlimit:0;stroke-dashoffset:0;stroke-opacity:1"
           inkscape:connector-curvature="0" />
      </g>
    </g>
  </g>
</svg>
