<?xml version="1.0" encoding="UTF-8" standalone="no"?>
<svg
   xmlns:dc="http://purl.org/dc/elements/1.1/"
   xmlns:cc="http://creativecommons.org/ns#"
   xmlns:rdf="http://www.w3.org/1999/02/22-rdf-syntax-ns#"
   xmlns:svg="http://www.w3.org/2000/svg"
   xmlns="http://www.w3.org/2000/svg"
   xmlns:sodipodi="http://sodipodi.sourceforge.net/DTD/sodipodi-0.dtd"
   xmlns:inkscape="http://www.inkscape.org/namespaces/inkscape"
   version="1.1"
   width="16"
   height="16"
   id="svg7404"
   inkscape:version="0.91 r"
   sodipodi:docname="object-ungroup-calligra.svg">
  <sodipodi:namedview
     pagecolor="#ffffff"
     bordercolor="#666666"
     borderopacity="1"
     objecttolerance="10"
     gridtolerance="10"
     guidetolerance="10"
     inkscape:pageopacity="0"
     inkscape:pageshadow="2"
     inkscape:window-width="640"
     inkscape:window-height="480"
     id="namedview4162"
     showgrid="false"
     inkscape:zoom="57.309859"
     inkscape:cx="4.7283116"
     inkscape:cy="8"
     inkscape:current-layer="selection_ungroup" />
  <defs
     id="defs7406" />
  <metadata
     id="metadata7409">
    <rdf:RDF>
      <cc:Work
         rdf:about="">
        <dc:format>image/svg+xml</dc:format>
        <dc:type
           rdf:resource="http://purl.org/dc/dcmitype/StillImage" />
      </cc:Work>
    </rdf:RDF>
  </metadata>
  <g
     id="layer1">
    <g
       transform="translate(-4.560529e-6,0)"
       id="selection_ungroup">
      <rect
         width="10"
         height="8.9999971"
         x="1.4999945"
         y="5.499999"
         id="rect10980"
         style="fill:#f3f3f3;fill-opacity:1;stroke:#353945;stroke-width:0.9999997;stroke-linecap:butt;stroke-linejoin:round;stroke-miterlimit:0;stroke-opacity:1;stroke-dasharray:none;stroke-dashoffset:0" />
      <path
         d="m 15.136634,5.4358912 a 4.2346536,4.5274755 0 1 1 -8.4693071,0 4.2346536,4.5274755 0 1 1 8.4693071,0 z"
         transform="matrix(1.062661,0,0,0.993932,-0.585106,-0.402903)"
         id="path10031"
         style="fill:#5294e2;fill-opacity:1;stroke:#353945;stroke-width:0.9730258;stroke-linecap:butt;stroke-linejoin:round;stroke-miterlimit:0;stroke-opacity:1;stroke-dasharray:none;stroke-dashoffset:0" />
      <rect
         width="1"
         height="1"
         x="15"
         y="9"
         id="rect10059"
         style="fill:#353945;fill-opacity:1;stroke:none;stroke-opacity:1" />
      <rect
         width="1"
         height="1"
         x="15"
         y="0"
         id="rect10061"
         style="fill:#353945;fill-opacity:1;stroke:none;stroke-opacity:1" />
      <rect
         width="1"
         height="1"
         x="6"
         y="9"
         id="rect10063"
         style="fill:#353945;fill-opacity:1;stroke:none;stroke-opacity:1" />
      <rect
         width="1"
         height="1"
         x="6"
         y="0"
         id="rect10065"
         style="fill:#353945;fill-opacity:1;stroke:none;stroke-opacity:1" />
      <rect
         width="1"
         height="1"
         x="0"
         y="15"
         id="rect10067"
         style="fill:#353945;fill-opacity:1;stroke:none;stroke-opacity:1" />
      <rect
         width="1"
         height="1"
         x="0"
         y="4"
         id="rect10069"
         style="fill:#353945;fill-opacity:1;stroke:none;stroke-opacity:1" />
      <rect
         width="1"
         height="1"
         x="12"
         y="15"
         id="rect10071"
         style="fill:#353945;fill-opacity:1;stroke:none;stroke-opacity:1" />
    </g>
  </g>
</svg>
